%!PS-Adobe-3.0
%%DocumentNeededResources: font Helvetica
%%+ font Helvetica-Bold
%%+ font Helvetica-Oblique
%%+ font Helvetica-BoldOblique
%%+ font Symbol
%%DocumentMedia: letter 612 792 0 () ()
%%Title: R Graphics Output
%%Creator: R Software
%%Pages: (atend)
%%Orientation: Landscape
%%BoundingBox: 126 234 486 558
%%EndComments
%%BeginProlog
/bp  { gs sRGB 612.00 0 translate 90 rotate gs } def
% begin .ps.prolog
/gs  { gsave } bind def
/gr  { grestore } bind def
/ep  { showpage gr gr } bind def
/m   { moveto } bind def
/l  { rlineto } bind def
/np  { newpath } bind def
/cp  { closepath } bind def
/f   { fill } bind def
/o   { stroke } bind def
/c   { newpath 0 360 arc } bind def
/r   { 4 2 roll moveto 1 copy 3 -1 roll exch 0 exch rlineto 0 rlineto -1 mul 0 exch rlineto closepath } bind def
/p1  { stroke } bind def
/p2  { gsave bg fill grestore newpath } bind def
/p3  { gsave bg fill grestore stroke } bind def
/p6  { gsave bg eofill grestore newpath } bind def
/p7  { gsave bg eofill grestore stroke } bind def
/t   { 5 -2 roll moveto gsave rotate
       1 index stringwidth pop
       mul neg 0 rmoveto show grestore } bind def
/ta  { 4 -2 roll moveto gsave rotate show } bind def
/tb  { 2 -1 roll 0 rmoveto show } bind def
/cl  { grestore gsave newpath 3 index 3 index moveto 1 index
       4 -1 roll lineto  exch 1 index lineto lineto
       closepath clip newpath } bind def
/rgb { setrgbcolor } bind def
/s   { scalefont setfont } bind def
% end   .ps.prolog
/sRGB { [ /CIEBasedABC
          << /DecodeLMN
               [ { dup 0.03928 le
                        {12.92321 div}
                        {0.055 add 1.055 div 2.4 exp }
                     ifelse
                 } bind dup dup
               ]
             /MatrixLMN [0.412457 0.212673 0.019334
                         0.357576 0.715152 0.119192
                         0.180437 0.072175 0.950301]
             /WhitePoint [0.9505 1.0 1.0890]
           >>
         ] setcolorspace } bind def
/srgb { setcolor } bind def
%%IncludeResource: font Helvetica
/Helvetica findfont
dup length dict begin
  {1 index /FID ne {def} {pop pop} ifelse} forall
  /Encoding ISOLatin1Encoding def
  currentdict
  end
/Font1 exch definefont pop
%%IncludeResource: font Helvetica-Bold
/Helvetica-Bold findfont
dup length dict begin
  {1 index /FID ne {def} {pop pop} ifelse} forall
  /Encoding ISOLatin1Encoding def
  currentdict
  end
/Font2 exch definefont pop
%%IncludeResource: font Helvetica-Oblique
/Helvetica-Oblique findfont
dup length dict begin
  {1 index /FID ne {def} {pop pop} ifelse} forall
  /Encoding ISOLatin1Encoding def
  currentdict
  end
/Font3 exch definefont pop
%%IncludeResource: font Helvetica-BoldOblique
/Helvetica-BoldOblique findfont
dup length dict begin
  {1 index /FID ne {def} {pop pop} ifelse} forall
  /Encoding ISOLatin1Encoding def
  currentdict
  end
/Font4 exch definefont pop
%%IncludeResource: font Symbol
/Symbol findfont
dup length dict begin
  {1 index /FID ne {def} {pop pop} ifelse} forall
  currentdict
  end
/Font5 exch definefont pop
%%EndProlog
%%Page: 1 1
bp
234.00 126.00 558.00 486.00 cl
234.00 126.00 558.00 486.00 cl
234.00 126.00 558.00 486.00 cl
/bg { 1 1 1 srgb } def
1 1 1 srgb
1.06 setlinewidth
[] 0 setdash
1 setlinecap
1 setlinejoin
10.00 setmiterlimit
234.00 126.00 324.00 360.00 r p3
234.00 126.00 558.00 486.00 cl
234.00 126.00 558.00 486.00 cl
234.00 126.00 558.00 486.00 cl
297.09 170.46 543.60 471.60 cl
/bg { 0.8980 0.8980 0.8980 srgb } def
297.09 170.46 246.51 301.14 r p2
0.9490 0.9490 0.9490 srgb
0.53 setlinewidth
[] 0 setdash
0 setlinecap
1 setlinejoin
10.00 setmiterlimit
np
297.09 197.54 m
246.51 0 l
o
np
297.09 271.90 m
246.51 0 l
o
np
297.09 346.26 m
246.51 0 l
o
np
297.09 420.62 m
246.51 0 l
o
1 1 1 srgb
1.06 setlinewidth
[] 0 setdash
np
297.09 234.72 m
246.51 0 l
o
np
297.09 309.08 m
246.51 0 l
o
np
297.09 383.44 m
246.51 0 l
o
np
297.09 457.80 m
246.51 0 l
o
np
364.32 170.46 m
0 301.14 l
o
np
476.37 170.46 m
0 301.14 l
o
0.2000 0.2000 0.2000 srgb
np
364.32 457.80 m
0 0 l
o
np
364.32 342.69 m
0 -155.56 l
o
/bg { 1 1 1 srgb } def
1 setlinecap
np
 322.30 457.80 m
0 -115.11 l
84.04 0 l
0 115.11 l
-84.04 0 l
cp p3
2.13 setlinewidth
[] 0 setdash
0 setlinecap
np
322.30 388.49 m
84.04 0 l
o
/bg { 0 0 0 srgb } def
476.37 262.97 2.13 c p2
476.37 191.59 2.13 c p2
476.37 199.02 2.13 c p2
476.37 234.72 2.13 c p2
476.37 207.35 2.13 c p2
476.37 196.64 2.13 c p2
476.37 194.86 2.13 c p2
476.37 184.15 2.13 c p2
476.37 187.72 2.13 c p2
476.37 197.54 2.13 c p2
476.37 203.78 2.13 c p2
1.06 setlinewidth
[] 0 setdash
np
476.37 457.80 m
0 0 l
o
np
476.37 386.41 m
0 -102.02 l
o
/bg { 1 1 1 srgb } def
1 setlinecap
np
 434.35 457.80 m
0 -71.39 l
84.04 0 l
0 71.39 l
-84.04 0 l
cp p3
2.13 setlinewidth
[] 0 setdash
0 setlinecap
np
434.35 414.37 m
84.04 0 l
o
0 0 0 srgb
0.75 setlinewidth
[] 0 setdash
1 setlinecap
359.53 289.25 2.13 c p1
363.20 394.63 2.13 c p1
359.41 341.29 2.13 c p1
366.84 299.85 2.13 c p1
369.64 338.92 2.13 c p1
362.84 295.20 2.13 c p1
358.81 235.01 2.13 c p1
363.44 307.54 2.13 c p1
361.77 356.93 2.13 c p1
368.20 362.82 2.13 c p1
360.23 457.74 2.13 c p1
362.20 328.98 2.13 c p1
363.64 377.78 2.13 c p1
363.38 351.65 2.13 c p1
365.64 315.21 2.13 c p1
362.77 457.68 2.13 c p1
365.68 279.43 2.13 c p1
364.55 419.02 2.13 c p1
363.49 210.43 2.13 c p1
367.55 396.04 2.13 c p1
368.16 353.98 2.13 c p1
358.81 187.14 2.13 c p1
369.85 358.67 2.13 c p1
365.87 457.74 2.13 c p1
367.73 403.97 2.13 c p1
366.29 457.87 2.13 c p1
368.63 457.80 2.13 c p1
361.68 383.43 2.13 c p1
360.27 457.84 2.13 c p1
364.02 403.65 2.13 c p1
369.12 457.74 2.13 c p1
368.84 457.85 2.13 c p1
360.58 457.74 2.13 c p1
361.28 457.70 2.13 c p1
367.45 375.17 2.13 c p1
360.58 227.77 2.13 c p1
368.57 452.63 2.13 c p1
363.80 457.90 2.13 c p1
364.83 457.91 2.13 c p1
365.43 408.18 2.13 c p1
368.70 457.87 2.13 c p1
361.99 457.82 2.13 c p1
369.55 457.90 2.13 c p1
366.48 457.82 2.13 c p1
363.70 385.55 2.13 c p1
364.19 368.63 2.13 c p1
358.86 457.69 2.13 c p1
360.69 423.56 2.13 c p1
365.28 391.80 2.13 c p1
366.92 457.70 2.13 c p1
366.90 282.41 2.13 c p1
358.91 383.54 2.13 c p1
367.93 457.88 2.13 c p1
366.97 265.85 2.13 c p1
369.77 457.77 2.13 c p1
362.64 338.88 2.13 c p1
369.77 281.68 2.13 c p1
359.00 342.72 2.13 c p1
368.45 279.37 2.13 c p1
365.34 254.97 2.13 c p1
363.95 457.81 2.13 c p1
366.60 457.81 2.13 c p1
368.03 457.87 2.13 c p1
367.24 256.95 2.13 c p1
360.52 210.09 2.13 c p1
360.15 457.70 2.13 c p1
369.06 457.74 2.13 c p1
368.44 457.89 2.13 c p1
359.38 353.89 2.13 c p1
364.73 319.31 2.13 c p1
363.89 457.84 2.13 c p1
360.77 271.81 2.13 c p1
358.84 279.44 2.13 c p1
361.54 381.03 2.13 c p1
365.21 296.62 2.13 c p1
364.51 457.84 2.13 c p1
367.09 383.40 2.13 c p1
364.32 373.58 2.13 c p1
367.35 288.04 2.13 c p1
362.76 281.10 2.13 c p1
364.17 457.81 2.13 c p1
369.85 457.83 2.13 c p1
363.56 363.81 2.13 c p1
363.59 306.15 2.13 c p1
368.60 251.76 2.13 c p1
365.04 316.23 2.13 c p1
364.23 351.27 2.13 c p1
363.67 336.93 2.13 c p1
358.97 457.73 2.13 c p1
362.70 240.70 2.13 c p1
362.46 457.82 2.13 c p1
359.07 457.78 2.13 c p1
368.25 226.29 2.13 c p1
359.60 346.27 2.13 c p1
363.93 457.85 2.13 c p1
361.61 344.99 2.13 c p1
360.64 288.01 2.13 c p1
359.29 378.37 2.13 c p1
369.24 388.45 2.13 c p1
364.28 457.77 2.13 c p1
365.98 296.59 2.13 c p1
358.77 452.05 2.13 c p1
358.84 358.64 2.13 c p1
359.58 373.55 2.13 c p1
365.79 320.91 2.13 c p1
366.36 358.68 2.13 c p1
359.66 457.75 2.13 c p1
360.46 321.59 2.13 c p1
365.27 282.98 2.13 c p1
360.33 391.82 2.13 c p1
365.29 308.96 2.13 c p1
365.76 355.55 2.13 c p1
367.11 457.84 2.13 c p1
367.65 457.83 2.13 c p1
368.67 287.59 2.13 c p1
360.20 457.68 2.13 c p1
368.91 457.89 2.13 c p1
365.50 357.87 2.13 c p1
365.76 337.36 2.13 c p1
362.19 388.48 2.13 c p1
366.05 297.12 2.13 c p1
359.50 446.91 2.13 c p1
369.31 457.69 2.13 c p1
363.96 333.80 2.13 c p1
358.99 457.82 2.13 c p1
363.48 359.65 2.13 c p1
362.67 358.76 2.13 c p1
363.44 388.54 2.13 c p1
359.58 262.39 2.13 c p1
368.90 269.62 2.13 c p1
359.10 354.47 2.13 c p1
368.32 282.20 2.13 c p1
365.91 358.86 2.13 c p1
367.66 377.54 2.13 c p1
367.05 408.23 2.13 c p1
369.77 323.43 2.13 c p1
368.81 457.86 2.13 c p1
369.88 351.30 2.13 c p1
366.05 328.77 2.13 c p1
363.79 457.79 2.13 c p1
368.49 368.66 2.13 c p1
369.65 351.54 2.13 c p1
365.83 457.80 2.13 c p1
364.55 457.91 2.13 c p1
367.25 457.90 2.13 c p1
368.31 387.85 2.13 c p1
367.29 266.31 2.13 c p1
362.42 457.86 2.13 c p1
366.05 350.50 2.13 c p1
361.36 373.98 2.13 c p1
362.16 398.25 2.13 c p1
360.28 457.74 2.13 c p1
365.25 359.91 2.13 c p1
369.09 457.89 2.13 c p1
366.85 382.63 2.13 c p1
365.97 457.84 2.13 c p1
363.17 309.13 2.13 c p1
367.70 457.69 2.13 c p1
362.35 457.80 2.13 c p1
368.60 457.79 2.13 c p1
365.48 457.84 2.13 c p1
361.09 380.48 2.13 c p1
359.54 384.45 2.13 c p1
368.56 457.89 2.13 c p1
368.92 457.76 2.13 c p1
363.98 378.73 2.13 c p1
359.22 457.89 2.13 c p1
360.72 457.70 2.13 c p1
361.73 253.69 2.13 c p1
364.09 401.07 2.13 c p1
361.41 457.81 2.13 c p1
368.51 457.84 2.13 c p1
366.73 457.82 2.13 c p1
364.95 457.76 2.13 c p1
369.40 393.93 2.13 c p1
363.74 392.95 2.13 c p1
360.26 457.75 2.13 c p1
364.79 457.91 2.13 c p1
365.63 457.85 2.13 c p1
363.32 457.68 2.13 c p1
366.53 411.49 2.13 c p1
365.34 457.71 2.13 c p1
369.57 457.79 2.13 c p1
362.05 317.47 2.13 c p1
366.12 370.13 2.13 c p1
359.66 457.72 2.13 c p1
362.40 457.88 2.13 c p1
363.73 457.90 2.13 c p1
360.52 457.81 2.13 c p1
363.47 406.29 2.13 c p1
364.38 390.21 2.13 c p1
361.50 457.77 2.13 c p1
365.61 358.65 2.13 c p1
365.50 349.23 2.13 c p1
367.95 457.87 2.13 c p1
364.83 457.70 2.13 c p1
367.26 393.76 2.13 c p1
361.47 457.90 2.13 c p1
362.75 457.88 2.13 c p1
366.31 326.00 2.13 c p1
366.88 403.08 2.13 c p1
368.43 358.80 2.13 c p1
367.12 457.85 2.13 c p1
363.91 457.80 2.13 c p1
368.00 457.89 2.13 c p1
366.77 404.94 2.13 c p1
367.91 404.32 2.13 c p1
359.72 457.68 2.13 c p1
367.26 408.18 2.13 c p1
366.37 457.86 2.13 c p1
359.66 315.67 2.13 c p1
360.36 457.86 2.13 c p1
366.57 457.83 2.13 c p1
361.81 226.42 2.13 c p1
359.51 381.97 2.13 c p1
365.48 457.76 2.13 c p1
360.46 457.89 2.13 c p1
367.42 349.84 2.13 c p1
362.67 395.00 2.13 c p1
367.25 457.84 2.13 c p1
366.34 457.74 2.13 c p1
358.87 386.16 2.13 c p1
360.86 457.78 2.13 c p1
366.46 457.71 2.13 c p1
359.92 457.75 2.13 c p1
364.99 333.08 2.13 c p1
363.34 360.56 2.13 c p1
358.98 457.74 2.13 c p1
366.24 457.75 2.13 c p1
366.95 457.76 2.13 c p1
366.22 358.77 2.13 c p1
368.22 340.23 2.13 c p1
366.20 397.95 2.13 c p1
367.26 412.58 2.13 c p1
365.51 457.72 2.13 c p1
358.88 385.73 2.13 c p1
368.04 457.73 2.13 c p1
367.10 457.83 2.13 c p1
365.27 457.77 2.13 c p1
360.20 240.66 2.13 c p1
367.15 375.69 2.13 c p1
362.79 279.31 2.13 c p1
360.90 457.74 2.13 c p1
367.86 457.87 2.13 c p1
366.98 356.10 2.13 c p1
366.42 404.45 2.13 c p1
368.02 457.85 2.13 c p1
364.00 457.72 2.13 c p1
369.19 457.70 2.13 c p1
365.43 326.70 2.13 c p1
365.37 375.12 2.13 c p1
367.26 424.72 2.13 c p1
360.90 420.29 2.13 c p1
366.79 409.95 2.13 c p1
360.60 390.31 2.13 c p1
368.76 333.88 2.13 c p1
365.35 324.02 2.13 c p1
369.75 457.81 2.13 c p1
366.63 370.46 2.13 c p1
363.14 365.51 2.13 c p1
361.11 457.80 2.13 c p1
369.18 457.91 2.13 c p1
368.74 457.82 2.13 c p1
368.50 362.09 2.13 c p1
360.96 358.83 2.13 c p1
369.39 353.77 2.13 c p1
361.06 457.90 2.13 c p1
367.45 457.88 2.13 c p1
360.12 348.54 2.13 c p1
363.24 358.86 2.13 c p1
366.97 383.44 2.13 c p1
369.36 373.53 2.13 c p1
364.34 358.69 2.13 c p1
359.13 358.72 2.13 c p1
366.19 348.34 2.13 c p1
368.28 377.26 2.13 c p1
359.73 358.65 2.13 c p1
367.55 333.79 2.13 c p1
364.83 318.90 2.13 c p1
364.59 373.72 2.13 c p1
358.94 358.71 2.13 c p1
361.65 287.64 2.13 c p1
360.34 457.77 2.13 c p1
359.69 373.61 2.13 c p1
363.29 373.63 2.13 c p1
367.06 408.10 2.13 c p1
361.16 457.76 2.13 c p1
364.80 385.21 2.13 c p1
362.14 339.01 2.13 c p1
362.87 457.87 2.13 c p1
366.18 336.38 2.13 c p1
366.62 362.88 2.13 c p1
361.95 383.41 2.13 c p1
361.42 279.33 2.13 c p1
361.09 333.72 2.13 c p1
366.56 299.25 2.13 c p1
364.28 408.20 2.13 c p1
365.92 292.41 2.13 c p1
369.07 457.75 2.13 c p1
361.69 408.08 2.13 c p1
364.82 358.66 2.13 c p1
366.62 457.72 2.13 c p1
363.43 408.24 2.13 c p1
366.53 457.74 2.13 c p1
369.64 441.20 2.13 c p1
365.31 299.37 2.13 c p1
368.44 308.96 2.13 c p1
363.46 342.15 2.13 c p1
366.44 265.67 2.13 c p1
358.83 356.48 2.13 c p1
361.99 457.87 2.13 c p1
364.15 369.67 2.13 c p1
361.06 313.20 2.13 c p1
364.99 279.41 2.13 c p1
363.07 306.61 2.13 c p1
365.60 326.54 2.13 c p1
365.60 457.75 2.13 c p1
362.21 373.60 2.13 c p1
362.65 363.12 2.13 c p1
367.06 390.35 2.13 c p1
363.42 249.40 2.13 c p1
361.07 457.77 2.13 c p1
363.33 383.43 2.13 c p1
358.88 356.78 2.13 c p1
365.12 366.99 2.13 c p1
368.85 279.40 2.13 c p1
369.60 408.02 2.13 c p1
363.35 259.36 2.13 c p1
361.54 457.80 2.13 c p1
359.34 279.36 2.13 c p1
368.85 457.83 2.13 c p1
359.93 457.76 2.13 c p1
368.47 457.83 2.13 c p1
362.65 457.91 2.13 c p1
369.25 331.30 2.13 c p1
362.85 457.89 2.13 c p1
368.52 457.79 2.13 c p1
362.15 457.83 2.13 c p1
364.48 457.74 2.13 c p1
364.68 391.83 2.13 c p1
369.04 457.72 2.13 c p1
362.25 383.55 2.13 c p1
368.62 457.83 2.13 c p1
358.76 355.87 2.13 c p1
360.41 393.86 2.13 c p1
367.40 237.15 2.13 c p1
359.88 457.87 2.13 c p1
365.38 375.04 2.13 c p1
365.79 340.55 2.13 c p1
359.48 338.71 2.13 c p1
363.54 457.89 2.13 c p1
365.82 309.04 2.13 c p1
368.50 457.77 2.13 c p1
478.64 394.77 2.13 c p1
477.63 420.70 2.13 c p1
481.15 262.87 2.13 c p1
472.64 406.40 2.13 c p1
478.99 410.76 2.13 c p1
471.32 414.08 2.13 c p1
471.98 312.32 2.13 c p1
473.19 293.64 2.13 c p1
475.34 419.18 2.13 c p1
473.54 457.79 2.13 c p1
480.26 423.28 2.13 c p1
472.05 372.52 2.13 c p1
476.11 191.58 2.13 c p1
477.16 408.45 2.13 c p1
475.64 457.80 2.13 c p1
471.47 441.18 2.13 c p1
472.28 392.67 2.13 c p1
480.68 399.53 2.13 c p1
479.73 358.79 2.13 c p1
472.43 457.75 2.13 c p1
470.94 374.62 2.13 c p1
477.91 199.04 2.13 c p1
479.42 457.91 2.13 c p1
479.11 457.71 2.13 c p1
471.32 457.83 2.13 c p1
481.95 371.53 2.13 c p1
477.61 410.16 2.13 c p1
476.17 398.62 2.13 c p1
472.39 457.83 2.13 c p1
472.35 428.08 2.13 c p1
477.30 457.76 2.13 c p1
478.89 411.16 2.13 c p1
474.10 426.68 2.13 c p1
477.33 365.63 2.13 c p1
481.84 456.94 2.13 c p1
478.39 428.04 2.13 c p1
481.75 428.05 2.13 c p1
472.34 457.79 2.13 c p1
480.29 412.49 2.13 c p1
480.41 457.73 2.13 c p1
473.92 405.77 2.13 c p1
478.34 416.15 2.13 c p1
474.71 428.01 2.13 c p1
480.82 408.78 2.13 c p1
476.05 457.71 2.13 c p1
477.51 457.81 2.13 c p1
474.62 457.74 2.13 c p1
473.44 407.21 2.13 c p1
472.34 408.20 2.13 c p1
474.74 457.81 2.13 c p1
477.64 457.76 2.13 c p1
473.64 400.30 2.13 c p1
470.99 457.74 2.13 c p1
470.94 405.43 2.13 c p1
476.27 457.68 2.13 c p1
472.69 390.26 2.13 c p1
479.57 413.84 2.13 c p1
474.01 457.69 2.13 c p1
478.64 234.60 2.13 c p1
478.04 408.70 2.13 c p1
471.21 392.37 2.13 c p1
476.72 400.09 2.13 c p1
480.75 457.78 2.13 c p1
472.31 457.79 2.13 c p1
481.17 449.06 2.13 c p1
471.16 410.42 2.13 c p1
475.08 396.71 2.13 c p1
472.28 393.16 2.13 c p1
472.79 387.59 2.13 c p1
474.64 408.18 2.13 c p1
474.29 414.35 2.13 c p1
476.35 376.00 2.13 c p1
477.51 457.79 2.13 c p1
472.58 457.90 2.13 c p1
475.71 362.28 2.13 c p1
480.33 398.56 2.13 c p1
474.26 457.68 2.13 c p1
479.16 390.62 2.13 c p1
473.27 457.82 2.13 c p1
480.49 400.38 2.13 c p1
472.61 383.45 2.13 c p1
475.45 457.70 2.13 c p1
479.63 457.71 2.13 c p1
479.92 410.85 2.13 c p1
471.04 408.01 2.13 c p1
479.33 385.26 2.13 c p1
475.33 457.91 2.13 c p1
473.62 419.81 2.13 c p1
472.94 401.56 2.13 c p1
477.83 424.16 2.13 c p1
476.23 457.69 2.13 c p1
471.34 402.85 2.13 c p1
477.84 408.11 2.13 c p1
476.21 414.44 2.13 c p1
476.13 411.42 2.13 c p1
473.03 398.40 2.13 c p1
476.68 457.75 2.13 c p1
472.47 410.30 2.13 c p1
479.27 409.91 2.13 c p1
480.86 436.59 2.13 c p1
473.33 398.25 2.13 c p1
471.21 457.90 2.13 c p1
479.92 457.72 2.13 c p1
472.60 407.12 2.13 c p1
471.46 457.78 2.13 c p1
480.71 457.88 2.13 c p1
481.40 397.70 2.13 c p1
476.16 417.05 2.13 c p1
472.92 384.73 2.13 c p1
481.44 359.34 2.13 c p1
479.27 457.74 2.13 c p1
480.33 443.49 2.13 c p1
478.30 436.62 2.13 c p1
478.09 457.90 2.13 c p1
476.70 389.63 2.13 c p1
476.01 356.34 2.13 c p1
474.90 422.92 2.13 c p1
478.42 396.91 2.13 c p1
475.33 407.28 2.13 c p1
475.39 457.71 2.13 c p1
474.39 457.74 2.13 c p1
470.98 387.79 2.13 c p1
478.22 408.37 2.13 c p1
479.12 381.57 2.13 c p1
473.99 386.44 2.13 c p1
473.64 365.55 2.13 c p1
481.30 441.12 2.13 c p1
476.47 398.67 2.13 c p1
471.82 427.94 2.13 c p1
472.19 457.89 2.13 c p1
481.36 386.47 2.13 c p1
474.79 402.80 2.13 c p1
474.79 457.77 2.13 c p1
476.16 383.55 2.13 c p1
475.17 457.79 2.13 c p1
477.44 441.06 2.13 c p1
480.40 457.87 2.13 c p1
472.49 405.95 2.13 c p1
475.36 402.38 2.13 c p1
472.29 428.07 2.13 c p1
475.74 398.93 2.13 c p1
480.45 385.41 2.13 c p1
472.95 457.83 2.13 c p1
474.91 384.09 2.13 c p1
475.26 457.83 2.13 c p1
479.54 207.37 2.13 c p1
481.72 457.78 2.13 c p1
477.05 457.89 2.13 c p1
473.94 408.06 2.13 c p1
479.85 457.74 2.13 c p1
480.61 457.75 2.13 c p1
481.07 457.82 2.13 c p1
477.52 382.18 2.13 c p1
478.46 379.17 2.13 c p1
478.74 457.82 2.13 c p1
474.23 457.74 2.13 c p1
479.29 388.26 2.13 c p1
480.58 457.71 2.13 c p1
473.28 457.87 2.13 c p1
471.94 333.20 2.13 c p1
476.32 284.48 2.13 c p1
481.84 457.76 2.13 c p1
480.12 457.89 2.13 c p1
473.58 457.75 2.13 c p1
471.32 457.71 2.13 c p1
476.27 348.84 2.13 c p1
476.68 379.86 2.13 c p1
480.28 457.69 2.13 c p1
472.84 408.01 2.13 c p1
479.27 457.83 2.13 c p1
477.79 457.85 2.13 c p1
477.82 351.84 2.13 c p1
474.46 457.75 2.13 c p1
476.67 457.82 2.13 c p1
472.89 326.87 2.13 c p1
480.51 196.64 2.13 c p1
473.40 457.68 2.13 c p1
480.98 424.83 2.13 c p1
477.97 457.85 2.13 c p1
476.76 457.86 2.13 c p1
476.79 457.88 2.13 c p1
479.07 457.73 2.13 c p1
480.46 385.55 2.13 c p1
473.57 384.52 2.13 c p1
473.33 457.83 2.13 c p1
477.62 457.89 2.13 c p1
477.29 326.83 2.13 c p1
471.52 457.72 2.13 c p1
475.01 457.74 2.13 c p1
475.00 369.86 2.13 c p1
477.66 457.78 2.13 c p1
474.93 457.74 2.13 c p1
478.18 442.09 2.13 c p1
475.26 194.90 2.13 c p1
471.18 408.06 2.13 c p1
478.14 457.74 2.13 c p1
480.29 457.74 2.13 c p1
475.08 457.80 2.13 c p1
471.74 359.58 2.13 c p1
477.51 367.59 2.13 c p1
479.88 457.87 2.13 c p1
478.21 408.19 2.13 c p1
478.23 457.75 2.13 c p1
480.97 366.58 2.13 c p1
481.95 457.89 2.13 c p1
478.16 457.81 2.13 c p1
472.70 446.40 2.13 c p1
477.55 353.50 2.13 c p1
473.75 457.76 2.13 c p1
480.17 457.83 2.13 c p1
473.53 184.22 2.13 c p1
471.51 375.14 2.13 c p1
476.78 457.90 2.13 c p1
479.91 457.79 2.13 c p1
478.08 387.40 2.13 c p1
476.08 457.69 2.13 c p1
480.29 457.88 2.13 c p1
479.10 408.24 2.13 c p1
473.22 358.86 2.13 c p1
477.94 346.93 2.13 c p1
480.72 457.80 2.13 c p1
473.17 391.85 2.13 c p1
477.20 457.87 2.13 c p1
480.31 457.75 2.13 c p1
471.30 187.69 2.13 c p1
474.83 373.40 2.13 c p1
475.05 379.79 2.13 c p1
480.97 457.82 2.13 c p1
480.62 369.49 2.13 c p1
472.54 457.69 2.13 c p1
472.04 457.78 2.13 c p1
481.55 457.89 2.13 c p1
477.80 428.92 2.13 c p1
478.75 370.67 2.13 c p1
472.44 318.85 2.13 c p1
472.69 457.85 2.13 c p1
473.31 457.85 2.13 c p1
474.15 197.58 2.13 c p1
472.16 380.78 2.13 c p1
479.67 457.91 2.13 c p1
471.08 457.75 2.13 c p1
475.10 457.90 2.13 c p1
481.87 361.97 2.13 c p1
480.71 332.48 2.13 c p1
480.31 404.88 2.13 c p1
477.26 384.24 2.13 c p1
478.89 457.82 2.13 c p1
473.19 374.21 2.13 c p1
480.65 361.99 2.13 c p1
472.63 383.45 2.13 c p1
470.79 379.67 2.13 c p1
474.45 457.83 2.13 c p1
479.92 203.82 2.13 c p1
471.35 358.72 2.13 c p1
481.07 389.09 2.13 c p1
476.79 457.84 2.13 c p1
479.66 391.82 2.13 c p1
479.10 457.72 2.13 c p1
478.94 368.34 2.13 c p1
234.00 126.00 558.00 486.00 cl
234.00 126.00 558.00 486.00 cl
234.00 126.00 558.00 486.00 cl
/Font1 findfont 14 s
0.4980 0.4980 0.4980 srgb
290.00 229.69 (0.25) 1 0 t
290.00 304.05 (0.50) 1 0 t
290.00 378.41 (0.75) 1 0 t
290.00 452.77 (1.00) 1 0 t
234.00 126.00 558.00 486.00 cl
234.00 126.00 558.00 486.00 cl
0.4980 0.4980 0.4980 srgb
1.06 setlinewidth
[] 0 setdash
0 setlinecap
1 setlinejoin
10.00 setmiterlimit
np
292.84 234.72 m
4.25 0 l
o
np
292.84 309.08 m
4.25 0 l
o
np
292.84 383.44 m
4.25 0 l
o
np
292.84 457.80 m
4.25 0 l
o
234.00 126.00 558.00 486.00 cl
234.00 126.00 558.00 486.00 cl
234.00 126.00 558.00 486.00 cl
234.00 126.00 558.00 486.00 cl
234.00 126.00 558.00 486.00 cl
234.00 126.00 558.00 486.00 cl
0.4980 0.4980 0.4980 srgb
1.06 setlinewidth
[] 0 setdash
0 setlinecap
1 setlinejoin
10.00 setmiterlimit
np
364.32 166.21 m
0 4.25 l
o
np
476.37 166.21 m
0 4.25 l
o
234.00 126.00 558.00 486.00 cl
234.00 126.00 558.00 486.00 cl
/Font1 findfont 20 s
0.6000 0 0 srgb
291.52 149.02 (StreamStr) 0 ta
0.300 (ucture) tb gr
476.37 149.02 (AID) .5 0 t
234.00 126.00 558.00 486.00 cl
234.00 126.00 558.00 486.00 cl
234.00 126.00 558.00 486.00 cl
234.00 126.00 558.00 486.00 cl
234.00 126.00 558.00 486.00 cl
234.00 126.00 558.00 486.00 cl
234.00 126.00 558.00 486.00 cl
/Font1 findfont 20 s
0.6000 0 0 srgb
259.16 234.89 (Detection Accur) 90 ta
-0.200 (acy) tb gr
234.00 126.00 558.00 486.00 cl
234.00 126.00 558.00 486.00 cl
234.00 126.00 558.00 486.00 cl
234.00 126.00 558.00 486.00 cl
ep
%%Trailer
%%Pages: 1
%%EOF
