%!PS-Adobe-3.0
%%DocumentNeededResources: font Helvetica
%%+ font Helvetica-Bold
%%+ font Helvetica-Oblique
%%+ font Helvetica-BoldOblique
%%+ font Symbol
%%DocumentMedia: letter 612 792 0 () ()
%%Title: R Graphics Output
%%Creator: R Software
%%Pages: (atend)
%%Orientation: Landscape
%%BoundingBox: 126 234 486 558
%%EndComments
%%BeginProlog
/bp  { gs sRGB 612.00 0 translate 90 rotate gs } def
% begin .ps.prolog
/gs  { gsave } bind def
/gr  { grestore } bind def
/ep  { showpage gr gr } bind def
/m   { moveto } bind def
/l  { rlineto } bind def
/np  { newpath } bind def
/cp  { closepath } bind def
/f   { fill } bind def
/o   { stroke } bind def
/c   { newpath 0 360 arc } bind def
/r   { 4 2 roll moveto 1 copy 3 -1 roll exch 0 exch rlineto 0 rlineto -1 mul 0 exch rlineto closepath } bind def
/p1  { stroke } bind def
/p2  { gsave bg fill grestore newpath } bind def
/p3  { gsave bg fill grestore stroke } bind def
/p6  { gsave bg eofill grestore newpath } bind def
/p7  { gsave bg eofill grestore stroke } bind def
/t   { 5 -2 roll moveto gsave rotate
       1 index stringwidth pop
       mul neg 0 rmoveto show grestore } bind def
/ta  { 4 -2 roll moveto gsave rotate show } bind def
/tb  { 2 -1 roll 0 rmoveto show } bind def
/cl  { grestore gsave newpath 3 index 3 index moveto 1 index
       4 -1 roll lineto  exch 1 index lineto lineto
       closepath clip newpath } bind def
/rgb { setrgbcolor } bind def
/s   { scalefont setfont } bind def
% end   .ps.prolog
/sRGB { [ /CIEBasedABC
          << /DecodeLMN
               [ { dup 0.03928 le
                        {12.92321 div}
                        {0.055 add 1.055 div 2.4 exp }
                     ifelse
                 } bind dup dup
               ]
             /MatrixLMN [0.412457 0.212673 0.019334
                         0.357576 0.715152 0.119192
                         0.180437 0.072175 0.950301]
             /WhitePoint [0.9505 1.0 1.0890]
           >>
         ] setcolorspace } bind def
/srgb { setcolor } bind def
%%IncludeResource: font Helvetica
/Helvetica findfont
dup length dict begin
  {1 index /FID ne {def} {pop pop} ifelse} forall
  /Encoding ISOLatin1Encoding def
  currentdict
  end
/Font1 exch definefont pop
%%IncludeResource: font Helvetica-Bold
/Helvetica-Bold findfont
dup length dict begin
  {1 index /FID ne {def} {pop pop} ifelse} forall
  /Encoding ISOLatin1Encoding def
  currentdict
  end
/Font2 exch definefont pop
%%IncludeResource: font Helvetica-Oblique
/Helvetica-Oblique findfont
dup length dict begin
  {1 index /FID ne {def} {pop pop} ifelse} forall
  /Encoding ISOLatin1Encoding def
  currentdict
  end
/Font3 exch definefont pop
%%IncludeResource: font Helvetica-BoldOblique
/Helvetica-BoldOblique findfont
dup length dict begin
  {1 index /FID ne {def} {pop pop} ifelse} forall
  /Encoding ISOLatin1Encoding def
  currentdict
  end
/Font4 exch definefont pop
%%IncludeResource: font Symbol
/Symbol findfont
dup length dict begin
  {1 index /FID ne {def} {pop pop} ifelse} forall
  currentdict
  end
/Font5 exch definefont pop
%%EndProlog
%%Page: 1 1
bp
234.00 126.00 558.00 486.00 cl
234.00 126.00 558.00 486.00 cl
234.00 126.00 558.00 486.00 cl
/bg { 1 1 1 srgb } def
1 1 1 srgb
1.06 setlinewidth
[] 0 setdash
1 setlinecap
1 setlinejoin
10.00 setmiterlimit
234.00 126.00 324.00 360.00 r p3
234.00 126.00 558.00 486.00 cl
234.00 126.00 558.00 486.00 cl
234.00 126.00 558.00 486.00 cl
297.09 171.20 543.60 471.60 cl
/bg { 0.8980 0.8980 0.8980 srgb } def
297.09 171.20 246.51 300.40 r p2
0.9490 0.9490 0.9490 srgb
0.53 setlinewidth
[] 0 setdash
0 setlinecap
1 setlinejoin
10.00 setmiterlimit
np
297.09 218.99 m
246.51 0 l
o
np
297.09 287.26 m
246.51 0 l
o
np
297.09 355.54 m
246.51 0 l
o
np
297.09 423.81 m
246.51 0 l
o
np
308.30 171.20 m
0 300.40 l
o
np
372.32 171.20 m
0 300.40 l
o
np
436.35 171.20 m
0 300.40 l
o
np
500.38 171.20 m
0 300.40 l
o
1 1 1 srgb
1.06 setlinewidth
[] 0 setdash
np
297.09 184.85 m
246.51 0 l
o
np
297.09 253.13 m
246.51 0 l
o
np
297.09 321.40 m
246.51 0 l
o
np
297.09 389.67 m
246.51 0 l
o
np
297.09 457.95 m
246.51 0 l
o
np
340.31 171.20 m
0 300.40 l
o
np
404.34 171.20 m
0 300.40 l
o
np
468.37 171.20 m
0 300.40 l
o
np
532.40 171.20 m
0 300.40 l
o
0 0.6000 0.4000 srgb
2.13 setlinewidth
[] 0 setdash
1.00 setmiterlimit
np
308.30 384.21 m
32.01 10.92 l
32.01 -12.28 l
32.02 -16.39 l
32.01 -17.75 l
32.02 -24.58 l
32.01 -28.67 l
32.02 -4.10 l
o
/bg { 0 0.6000 0.4000 srgb } def
np
 308.30 390.82 m
5.72 -9.92 l
-11.45 0 l
cp p2
np
 340.31 401.75 m
5.73 -9.92 l
-11.46 0 l
cp p2
np
 372.32 389.46 m
5.73 -9.92 l
-11.45 0 l
cp p2
np
 404.34 373.07 m
5.72 -9.92 l
-11.45 0 l
cp p2
np
 436.35 355.32 m
5.73 -9.92 l
-11.45 0 l
cp p2
np
 468.37 330.74 m
5.72 -9.92 l
-11.45 0 l
cp p2
np
 500.38 302.07 m
5.73 -9.92 l
-11.46 0 l
cp p2
np
 532.40 297.97 m
5.72 -9.92 l
-11.45 0 l
cp p2
234.00 126.00 558.00 486.00 cl
234.00 126.00 558.00 486.00 cl
234.00 126.00 558.00 486.00 cl
/Font1 findfont 14 s
0.4980 0.4980 0.4980 srgb
290.00 179.83 (0.70) 1 0 t
290.00 248.10 (0.75) 1 0 t
290.00 316.37 (0.80) 1 0 t
290.00 384.65 (0.85) 1 0 t
290.00 452.92 (0.90) 1 0 t
234.00 126.00 558.00 486.00 cl
234.00 126.00 558.00 486.00 cl
0.4980 0.4980 0.4980 srgb
1.06 setlinewidth
[] 0 setdash
0 setlinecap
1 setlinejoin
10.00 setmiterlimit
np
292.84 184.85 m
4.25 0 l
o
np
292.84 253.13 m
4.25 0 l
o
np
292.84 321.40 m
4.25 0 l
o
np
292.84 389.67 m
4.25 0 l
o
np
292.84 457.95 m
4.25 0 l
o
234.00 126.00 558.00 486.00 cl
234.00 126.00 558.00 486.00 cl
234.00 126.00 558.00 486.00 cl
234.00 126.00 558.00 486.00 cl
234.00 126.00 558.00 486.00 cl
234.00 126.00 558.00 486.00 cl
0.4980 0.4980 0.4980 srgb
1.06 setlinewidth
[] 0 setdash
0 setlinecap
1 setlinejoin
10.00 setmiterlimit
np
340.31 166.95 m
0 4.25 l
o
np
404.34 166.95 m
0 4.25 l
o
np
468.37 166.95 m
0 4.25 l
o
np
532.40 166.95 m
0 4.25 l
o
234.00 126.00 558.00 486.00 cl
234.00 126.00 558.00 486.00 cl
/Font1 findfont 14 s
0.4980 0.4980 0.4980 srgb
340.31 154.06 (2) .5 0 t
404.34 154.06 (4) .5 0 t
468.37 154.06 (6) .5 0 t
532.40 154.06 (8) .5 0 t
234.00 126.00 558.00 486.00 cl
234.00 126.00 558.00 486.00 cl
234.00 126.00 558.00 486.00 cl
234.00 126.00 558.00 486.00 cl
234.00 126.00 558.00 486.00 cl
/Font5 findfont 20 s
0.6000 0 0 srgb
412.06 140.46 (t) 0 0 t
/Font1 findfont 14 s
420.84 136.80 (L) 0 0 t
234.00 126.00 558.00 486.00 cl
234.00 126.00 558.00 486.00 cl
/Font1 findfont 20 s
0.6000 0 0 srgb
259.16 235.26 (Detection Accur) 90 ta
-0.200 (acy) tb gr
234.00 126.00 558.00 486.00 cl
234.00 126.00 558.00 486.00 cl
234.00 126.00 558.00 486.00 cl
234.00 126.00 558.00 486.00 cl
ep
%%Trailer
%%Pages: 1
%%EOF
