%!PS-Adobe-3.0
%%DocumentNeededResources: font Helvetica
%%+ font Helvetica-Bold
%%+ font Helvetica-Oblique
%%+ font Helvetica-BoldOblique
%%+ font Symbol
%%DocumentMedia: letter 612 792 0 () ()
%%Title: R Graphics Output
%%Creator: R Software
%%Pages: (atend)
%%Orientation: Landscape
%%BoundingBox: 90 108 522 684
%%EndComments
%%BeginProlog
/bp  { gs sRGB 612.00 0 translate 90 rotate gs } def
% begin .ps.prolog
/gs  { gsave } bind def
/gr  { grestore } bind def
/ep  { showpage gr gr } bind def
/m   { moveto } bind def
/l  { rlineto } bind def
/np  { newpath } bind def
/cp  { closepath } bind def
/f   { fill } bind def
/o   { stroke } bind def
/c   { newpath 0 360 arc } bind def
/r   { 4 2 roll moveto 1 copy 3 -1 roll exch 0 exch rlineto 0 rlineto -1 mul 0 exch rlineto closepath } bind def
/p1  { stroke } bind def
/p2  { gsave bg fill grestore newpath } bind def
/p3  { gsave bg fill grestore stroke } bind def
/p6  { gsave bg eofill grestore newpath } bind def
/p7  { gsave bg eofill grestore stroke } bind def
/t   { 5 -2 roll moveto gsave rotate
       1 index stringwidth pop
       mul neg 0 rmoveto show grestore } bind def
/ta  { 4 -2 roll moveto gsave rotate show } bind def
/tb  { 2 -1 roll 0 rmoveto show } bind def
/cl  { grestore gsave newpath 3 index 3 index moveto 1 index
       4 -1 roll lineto  exch 1 index lineto lineto
       closepath clip newpath } bind def
/rgb { setrgbcolor } bind def
/s   { scalefont setfont } bind def
% end   .ps.prolog
/sRGB { [ /CIEBasedABC
          << /DecodeLMN
               [ { dup 0.03928 le
                        {12.92321 div}
                        {0.055 add 1.055 div 2.4 exp }
                     ifelse
                 } bind dup dup
               ]
             /MatrixLMN [0.412457 0.212673 0.019334
                         0.357576 0.715152 0.119192
                         0.180437 0.072175 0.950301]
             /WhitePoint [0.9505 1.0 1.0890]
           >>
         ] setcolorspace } bind def
/srgb { setcolor } bind def
%%IncludeResource: font Helvetica
/Helvetica findfont
dup length dict begin
  {1 index /FID ne {def} {pop pop} ifelse} forall
  /Encoding ISOLatin1Encoding def
  currentdict
  end
/Font1 exch definefont pop
%%IncludeResource: font Helvetica-Bold
/Helvetica-Bold findfont
dup length dict begin
  {1 index /FID ne {def} {pop pop} ifelse} forall
  /Encoding ISOLatin1Encoding def
  currentdict
  end
/Font2 exch definefont pop
%%IncludeResource: font Helvetica-Oblique
/Helvetica-Oblique findfont
dup length dict begin
  {1 index /FID ne {def} {pop pop} ifelse} forall
  /Encoding ISOLatin1Encoding def
  currentdict
  end
/Font3 exch definefont pop
%%IncludeResource: font Helvetica-BoldOblique
/Helvetica-BoldOblique findfont
dup length dict begin
  {1 index /FID ne {def} {pop pop} ifelse} forall
  /Encoding ISOLatin1Encoding def
  currentdict
  end
/Font4 exch definefont pop
%%IncludeResource: font Symbol
/Symbol findfont
dup length dict begin
  {1 index /FID ne {def} {pop pop} ifelse} forall
  currentdict
  end
/Font5 exch definefont pop
%%EndProlog
%%Page: 1 1
bp
108.00 90.00 684.00 522.00 cl
0 0 0 srgb
0.75 setlinewidth
[] 0 setdash
1 setlinecap
1 setlinejoin
10.00 setmiterlimit
np
180.00 162.00 m
489.60 0 l
0 345.60 l
-489.60 0 l
0 -345.60 l
o
108.00 90.00 684.00 522.00 cl
180.00 162.00 669.60 507.60 cl
0 0 0 srgb
1.50 setlinewidth
[] 0 setdash
1 setlinecap
1 setlinejoin
10.00 setmiterlimit
np
198.13 386.22 m
42.97 0 l
0 66.95 l
25.13 0 l
0 14.72 l
17.84 0 l
0 8.45 l
13.83 0 l
0 4.51 l
11.30 0 l
0 2.62 l
9.56 0 l
0 1.57 l
8.27 0 l
0 2.02 l
7.31 0 l
0 0.86 l
6.53 0 l
0 1.22 l
5.90 0 l
0 0.70 l
5.40 0 l
0 0.51 l
4.96 0 l
0 0.39 l
4.59 0 l
0 0.64 l
4.28 0 l
0 0.16 l
4.00 0 l
0 0.35 l
3.76 0 l
0 0.41 l
3.54 0 l
0 0.10 l
3.35 0 l
0 0.10 l
3.18 0 l
0 0.19 l
3.03 0 l
0 0.09 l
2.88 0 l
0 0.16 l
2.76 0 l
0 0.13 l
2.64 0 l
0 0.39 l
2.53 0 l
0 0.06 l
2.43 0 l
0 0.16 l
2.34 0 l
0 0.03 l
2.25 0 l
0 0.03 l
2.18 0 l
0 0.16 l
2.10 0 l
0 0.10 l
2.03 0 l
0 0.03 l
3.88 0 l
0 0.07 l
1.85 0 l
0 0.03 l
1.79 0 l
0 0.09 l
1.75 0 l
0 0.04 l
6.53 0 l
0 0.03 l
3.02 0 l
0 0.03 l
1.46 0 l
0 0.03 l
2.82 0 l
0 0.07 l
4.00 0 l
0 0.03 l
9.56 0 l
0 0.03 l
1.09 0 l
0 0.06 l
6.21 0 l
0 0.04 l
11.63 0 l
0 0.03 l
1.61 0 l
0 0.03 l
4.59 0 l
0 0.03 l
11.43 0 l
0 0.03 l
43.27 0 l
0 0.04 l
124.92 0 l
0 0.03 l
31.59 0 l
o
1 0 0 srgb
1.50 setlinewidth
[ 4.50 7.50] 0 setdash
np
198.13 381.14 m
42.97 0 l
0 62.56 l
25.13 0 l
0 17.69 l
17.84 0 l
0 10.69 l
13.83 0 l
0 5.54 l
11.30 0 l
0 3.77 l
9.56 0 l
0 2.66 l
8.27 0 l
0 2.37 l
7.31 0 l
0 1.28 l
6.53 0 l
0 1.21 l
5.90 0 l
0 0.87 l
5.40 0 l
0 0.60 l
4.96 0 l
0 0.39 l
4.59 0 l
0 0.73 l
4.28 0 l
0 0.48 l
4.00 0 l
0 0.68 l
3.76 0 l
0 0.16 l
3.54 0 l
0 0.09 l
3.35 0 l
0 0.26 l
3.18 0 l
0 0.16 l
3.03 0 l
0 0.03 l
2.88 0 l
0 0.06 l
2.76 0 l
0 0.07 l
2.64 0 l
0 0.09 l
2.53 0 l
0 0.07 l
2.43 0 l
0 0.03 l
2.34 0 l
0 0.06 l
2.25 0 l
0 0.10 l
2.18 0 l
0 0.03 l
2.10 0 l
0 0.07 l
4.00 0 l
0 0.06 l
1.91 0 l
0 0.06 l
3.64 0 l
0 0.04 l
1.75 0 l
0 0.09 l
6.53 0 l
0 0.03 l
5.91 0 l
0 0.04 l
1.39 0 l
0 0.03 l
4.00 0 l
0 0.03 l
2.53 0 l
0 0.06 l
3.61 0 l
0 0.04 l
3.42 0 l
0 0.03 l
4.27 0 l
0 0.03 l
4.97 0 l
0 0.03 l
3.70 0 l
0 0.03 l
3.49 0 l
0 0.04 l
6.45 0 l
0 0.03 l
2.25 0 l
0 0.03 l
0.74 0 l
0 0.03 l
19.27 0 l
0 0.03 l
5.62 0 l
0 0.04 l
8.21 0 l
506.63 494.77 lineto
7.63 0 l
0 0.03 l
o
0 0.8039 0 srgb
1.50 setlinewidth
[ 0.00 6.00] 0 setdash
np
198.13 174.80 m
0 0 l
0 130.24 l
42.97 0 l
0 34.59 l
25.13 0 l
0 23.59 l
17.84 0 l
0 20.57 l
13.83 0 l
0 12.03 l
11.30 0 l
0 8.58 l
9.56 0 l
0 5.47 l
8.27 0 l
0 6.27 l
7.31 0 l
0 4.93 l
6.53 0 l
0 4.42 l
5.90 0 l
0 3.71 l
5.40 0 l
0 3.10 l
4.96 0 l
0 2.76 l
4.59 0 l
0 3.04 l
4.28 0 l
0 2.91 l
4.00 0 l
0 2.75 l
3.76 0 l
0 2.18 l
3.54 0 l
0 1.92 l
3.35 0 l
0 1.34 l
3.18 0 l
0 1.76 l
3.03 0 l
0 1.50 l
2.88 0 l
0 1.38 l
2.76 0 l
0 0.99 l
2.64 0 l
0 1.47 l
2.53 0 l
0 1.57 l
2.43 0 l
0 1.12 l
2.34 0 l
0 0.96 l
2.25 0 l
0 0.74 l
2.18 0 l
0 0.86 l
2.10 0 l
0 1.15 l
2.03 0 l
0 0.61 l
1.97 0 l
0 0.51 l
1.91 0 l
0 0.58 l
1.85 0 l
0 0.70 l
1.79 0 l
0 0.48 l
1.75 0 l
0 0.74 l
1.70 0 l
0 0.67 l
1.65 0 l
0 0.39 l
1.61 0 l
0 0.38 l
1.57 0 l
0 0.61 l
1.53 0 l
0 0.57 l
1.49 0 l
0 0.71 l
1.46 0 l
0 0.57 l
1.43 0 l
0 0.55 l
1.39 0 l
0 0.54 l
1.36 0 l
0 0.26 l
1.34 0 l
0 0.51 l
1.30 0 l
0 0.48 l
1.28 0 l
0 0.48 l
1.25 0 l
440.63 473.39 lineto
1.23 0 l
0 0.32 l
1.20 0 l
0 0.19 l
1.18 0 l
0 0.26 l
1.16 0 l
0 0.38 l
1.14 0 l
0 0.29 l
1.12 0 l
0 0.39 l
1.09 0 l
0 0.28 l
1.08 0 l
0 0.58 l
1.06 0 l
0 0.16 l
1.04 0 l
0 0.38 l
1.03 0 l
0 0.52 l
1.01 0 l
0 0.25 l
0.99 0 l
0 0.10 l
0.97 0 l
0 0.22 l
0.97 0 l
0 0.19 l
0.94 0 l
0 0.20 l
0.93 0 l
0 0.28 l
0.92 0 l
0 0.36 l
0.91 0 l
0 0.28 l
0.89 0 l
0 0.16 l
0.88 0 l
0 0.13 l
0.87 0 l
0 0.07 l
0.85 0 l
0 0.19 l
0.84 0 l
0 0.09 l
0.84 0 l
0 0.23 l
0.82 0 l
0 0.19 l
0.81 0 l
0 0.22 l
0.80 0 l
0 0.10 l
0.79 0 l
0 0.16 l
0.78 0 l
0 0.06 l
0.77 0 l
0 0.13 l
0.76 0 l
0 0.26 l
0.75 0 l
0 0.16 l
0.74 0 l
0 0.19 l
0.74 0 l
0 0.22 l
0.72 0 l
0 0.23 l
0.72 0 l
0 0.13 l
0.71 0 l
0 0.09 l
0.70 0 l
0 0.29 l
0.69 0 l
0 0.06 l
0.68 0 l
0 0.04 l
0.68 0 l
0 0.22 l
0.67 0 l
0 0.06 l
0.66 0 l
0 0.10 l
0.66 0 l
0 0.26 l
0.65 0 l
0 0.03 l
0.64 0 l
0 0.03 l
0.64 0 l
0 0.03 l
0.63 0 l
0 0.19 l
0.62 0 l
483.60 483.44 lineto
0.62 0 l
0 0.10 l
0.61 0 l
0 0.03 l
0.60 0 l
0 0.03 l
0.60 0 l
0 0.16 l
0.59 0 l
0 0.06 l
0.59 0 l
0 0.10 l
0.58 0 l
0 0.10 l
0.58 0 l
0 0.16 l
0.57 0 l
0 0.06 l
0.57 0 l
0 0.10 l
0.56 0 l
0 0.19 l
0.55 0 l
0 0.03 l
0.56 0 l
0 0.06 l
0.54 0 l
0 0.10 l
0.54 0 l
0 0.03 l
0.54 0 l
0 0.07 l
0.53 0 l
0 0.06 l
0.53 0 l
0 0.03 l
0.52 0 l
0 0.07 l
0.52 0 l
0 0.22 l
0.52 0 l
0 0.10 l
0.51 0 l
0 0.03 l
1.00 0 l
0 0.06 l
0.50 0 l
0 0.10 l
0.99 0 l
0 0.09 l
0.48 0 l
0 0.07 l
0.48 0 l
0 0.09 l
0.48 0 l
0 0.04 l
0.48 0 l
0 0.03 l
0.47 0 l
0 0.03 l
0.47 0 l
0 0.13 l
0.46 0 l
0 0.06 l
0.46 0 l
0 0.03 l
0.46 0 l
0 0.10 l
0.45 0 l
0 0.19 l
0.90 0 l
0 0.07 l
0.45 0 l
0 0.16 l
0.44 0 l
0 0.06 l
1.73 0 l
0 0.16 l
0.43 0 l
0 0.03 l
0.84 0 l
0 0.03 l
0.42 0 l
0 0.07 l
0.41 0 l
0 0.06 l
0.42 0 l
0 0.10 l
0.40 0 l
0 0.13 l
0.41 0 l
0 0.03 l
0.40 0 l
0 0.03 l
0.41 0 l
0 0.06 l
0.39 0 l
0 0.07 l
0.40 0 l
511.56 487.44 lineto
0.39 0 l
0 0.10 l
0.40 0 l
0 0.09 l
0.38 0 l
0 0.03 l
0.39 0 l
0 0.04 l
0.38 0 l
0 0.06 l
0.76 0 l
0 0.06 l
0.38 0 l
0 0.07 l
0.38 0 l
0 0.03 l
0.37 0 l
0 0.06 l
0.37 0 l
0 0.04 l
0.37 0 l
0 0.06 l
1.09 0 l
0 0.06 l
0.36 0 l
0 0.04 l
0.35 0 l
0 0.06 l
1.06 0 l
0 0.03 l
0.35 0 l
0 0.03 l
0.35 0 l
0 0.04 l
1.37 0 l
0 0.03 l
0.67 0 l
0 0.03 l
1.00 0 l
0 0.03 l
0.33 0 l
0 0.07 l
0.65 0 l
0 0.06 l
0.33 0 l
0 0.03 l
0.96 0 l
0 0.03 l
0.31 0 l
0 0.04 l
0.32 0 l
0 0.06 l
0.63 0 l
0 0.03 l
1.23 0 l
0 0.03 l
0.30 0 l
0 0.04 l
0.31 0 l
0 0.03 l
0.30 0 l
0 0.03 l
1.49 0 l
0 0.03 l
0.58 0 l
0 0.10 l
0.29 0 l
0 0.06 l
0.86 0 l
0 0.03 l
0.29 0 l
0 0.07 l
0.56 0 l
0 0.03 l
0.84 0 l
0 0.06 l
0.28 0 l
0 0.04 l
0.55 0 l
0 0.03 l
0.28 0 l
0 0.03 l
0.27 0 l
0 0.03 l
1.87 0 l
0 0.03 l
0.53 0 l
0 0.04 l
0.26 0 l
0 0.09 l
0.26 0 l
0 0.03 l
0.26 0 l
0 0.04 l
0.26 0 l
0 0.03 l
0.51 0 l
0 0.03 l
1.51 0 l
540.15 489.71 lineto
0.50 0 l
0 0.07 l
0.24 0 l
0 0.03 l
0.25 0 l
0 0.03 l
0.24 0 l
0 0.03 l
1.21 0 l
0 0.07 l
0.48 0 l
0 0.06 l
0.23 0 l
0 0.03 l
0.94 0 l
0 0.03 l
1.16 0 l
0 0.04 l
0.23 0 l
0 0.03 l
0.22 0 l
0 0.03 l
0.46 0 l
0 0.06 l
0.45 0 l
0 0.04 l
0.22 0 l
0 0.03 l
0.66 0 l
0 0.03 l
0.22 0 l
0 0.06 l
0.66 0 l
0 0.04 l
0.22 0 l
0 0.03 l
0.21 0 l
0 0.03 l
0.86 0 l
0 0.03 l
0.64 0 l
0 0.03 l
0.63 0 l
0 0.04 l
0.21 0 l
0 0.03 l
0.41 0 l
0 0.03 l
0.41 0 l
0 0.03 l
0.82 0 l
0 0.03 l
1.20 0 l
0 0.04 l
1.38 0 l
0 0.03 l
1.53 0 l
0 0.03 l
2.42 0 l
0 0.03 l
0.54 0 l
0 0.03 l
0.72 0 l
0 0.04 l
0.89 0 l
0 0.03 l
0.18 0 l
0 0.03 l
0.17 0 l
0 0.03 l
0.18 0 l
0 0.03 l
0.17 0 l
0 0.04 l
0.17 0 l
0 0.12 l
0.69 0 l
0 0.04 l
1.03 0 l
0 0.03 l
0.83 0 l
0 0.03 l
1.97 0 l
0 0.03 l
0.65 0 l
0 0.03 l
0.15 0 l
0 0.04 l
0.32 0 l
0 0.03 l
0.16 0 l
0 0.03 l
0.32 0 l
0 0.03 l
0.47 0 l
0 0.03 l
0.31 0 l
0 0.04 l
2.44 0 l
571.82 491.57 lineto
0.14 0 l
0 0.03 l
1.33 0 l
0 0.03 l
0.29 0 l
0 0.07 l
0.72 0 l
0 0.06 l
1.98 0 l
0 0.03 l
0.55 0 l
0 0.03 l
0.28 0 l
0 0.04 l
0.27 0 l
0 0.03 l
1.09 0 l
0 0.03 l
0.66 0 l
0 0.03 l
1.45 0 l
0 0.03 l
0.38 0 l
0 0.04 l
0.13 0 l
0 0.06 l
0.52 0 l
0 0.03 l
0.63 0 l
0 0.03 l
2.35 0 l
0 0.04 l
2.62 0 l
0 0.03 l
1.16 0 l
0 0.03 l
1.13 0 l
0 0.03 l
0.78 0 l
0 0.03 l
0.66 0 l
0 0.04 l
1.09 0 l
0 0.03 l
0.11 0 l
0 0.06 l
0.85 0 l
0 0.03 l
0.32 0 l
0 0.04 l
2.69 0 l
0 0.03 l
0.20 0 l
0 0.03 l
0.60 0 l
0 0.03 l
0.50 0 l
0 0.03 l
1.08 0 l
0 0.07 l
1.63 0 l
0 0.03 l
0.85 0 l
0 0.03 l
0.09 0 l
0 0.03 l
0.28 0 l
0 0.04 l
1.92 0 l
0 0.03 l
0.36 0 l
0 0.03 l
0.62 0 l
0 0.03 l
0.27 0 l
0 0.03 l
1.05 0 l
0 0.04 l
1.54 0 l
0 0.03 l
0.09 0 l
0 0.03 l
0.84 0 l
0 0.06 l
0.99 0 l
0 0.04 l
3.44 0 l
0 0.06 l
2.80 0 l
0 0.03 l
1.54 0 l
0 0.03 l
0.51 0 l
0 0.04 l
2.81 0 l
0 0.03 l
1.42 0 l
0 0.03 l
0.07 0 l
621.50 493.39 lineto
2.82 0 l
0 0.03 l
0.12 0 l
0 0.04 l
3.72 0 l
0 0.03 l
2.02 0 l
0 0.03 l
0.58 0 l
0 0.03 l
1.20 0 l
0 0.03 l
0.79 0 l
0 0.04 l
1.70 0 l
0 0.03 l
0.17 0 l
0 0.03 l
0.27 0 l
0 0.03 l
1.96 0 l
0 0.03 l
1.66 0 l
0 0.04 l
2.54 0 l
0 0.03 l
2.21 0 l
0 0.03 l
1.03 0 l
0 0.03 l
1.51 0 l
0 0.03 l
0.86 0 l
0 0.04 l
0.35 0 l
0 0.03 l
0.18 0 l
0 0.03 l
0.31 0 l
0 0.03 l
4.09 0 l
0 0.03 l
2.43 0 l
0 0.04 l
1.02 0 l
0 0.03 l
1.92 0 l
0 0.03 l
0.79 0 l
0 0.03 l
10.49 0 l
0 0.03 l
2.23 0 l
0 0.04 l
3.83 0 l
0 0.03 l
2.19 0 l
0 0.03 l
4.78 0 l
0 0.03 l
2.73 0 l
o
0 0 1 srgb
1.50 setlinewidth
[ 0.00 6.00 4.50 6.00] 0 setdash
np
198.13 174.80 m
0 0 l
0 132.19 l
42.97 0 l
0 45.95 l
25.13 0 l
0 19.81 l
17.84 0 l
0 17.76 l
13.83 0 l
0 8.35 l
11.30 0 l
0 7.43 l
9.56 0 l
0 4.99 l
8.27 0 l
0 5.44 l
7.31 0 l
0 3.90 l
6.53 0 l
0 4.16 l
5.90 0 l
0 3.11 l
5.40 0 l
0 3.29 l
4.96 0 l
0 4.71 l
4.59 0 l
0 5.79 l
4.28 0 l
0 2.85 l
4.00 0 l
0 2.17 l
3.76 0 l
0 1.25 l
3.54 0 l
0 1.89 l
3.35 0 l
0 1.57 l
3.18 0 l
0 1.89 l
3.03 0 l
0 1.12 l
2.88 0 l
0 1.12 l
2.76 0 l
0 1.34 l
2.64 0 l
0 1.41 l
2.53 0 l
0 1.18 l
2.43 0 l
0 1.31 l
2.34 0 l
0 1.00 l
2.25 0 l
0 0.99 l
2.18 0 l
0 0.93 l
2.10 0 l
0 0.83 l
2.03 0 l
0 0.45 l
1.97 0 l
0 0.51 l
1.91 0 l
0 0.57 l
1.85 0 l
0 0.68 l
1.79 0 l
0 0.44 l
1.75 0 l
0 0.68 l
1.70 0 l
0 0.22 l
1.65 0 l
0 0.61 l
1.61 0 l
0 0.64 l
1.57 0 l
0 0.64 l
1.53 0 l
0 0.48 l
1.49 0 l
0 0.57 l
1.46 0 l
0 0.36 l
1.43 0 l
0 0.41 l
1.39 0 l
0 0.39 l
1.36 0 l
0 0.25 l
1.34 0 l
0 0.26 l
1.30 0 l
0 0.54 l
1.28 0 l
0 0.39 l
1.25 0 l
440.63 474.16 lineto
1.23 0 l
0 0.29 l
1.20 0 l
0 0.51 l
1.18 0 l
0 0.38 l
1.16 0 l
0 0.23 l
1.14 0 l
0 0.16 l
1.12 0 l
0 0.38 l
1.09 0 l
0 0.10 l
1.08 0 l
0 0.32 l
1.06 0 l
0 0.35 l
1.04 0 l
0 0.19 l
1.03 0 l
0 0.23 l
1.01 0 l
0 0.12 l
0.99 0 l
0 0.29 l
0.97 0 l
0 0.13 l
0.97 0 l
0 0.16 l
0.94 0 l
0 0.26 l
0.93 0 l
0 0.32 l
0.92 0 l
0 0.28 l
0.91 0 l
0 0.26 l
0.89 0 l
0 0.13 l
0.88 0 l
0 0.03 l
0.87 0 l
0 0.35 l
0.85 0 l
0 0.10 l
0.84 0 l
0 0.13 l
0.84 0 l
0 0.16 l
0.82 0 l
0 0.25 l
0.81 0 l
0 0.13 l
0.80 0 l
0 0.03 l
0.79 0 l
0 0.10 l
0.78 0 l
0 0.13 l
0.77 0 l
0 0.22 l
0.76 0 l
0 0.03 l
0.75 0 l
0 0.16 l
0.74 0 l
0 0.10 l
0.74 0 l
0 0.19 l
0.72 0 l
0 0.13 l
0.72 0 l
0 0.03 l
0.71 0 l
0 0.06 l
0.70 0 l
0 0.04 l
0.69 0 l
0 0.22 l
0.68 0 l
0 0.10 l
0.68 0 l
0 0.16 l
0.67 0 l
0 0.06 l
0.66 0 l
0 0.13 l
0.66 0 l
0 0.13 l
0.65 0 l
0 0.16 l
0.64 0 l
0 0.09 l
0.64 0 l
0 0.07 l
1.25 0 l
0 0.06 l
0.62 0 l
484.22 482.83 lineto
0.61 0 l
0 0.03 l
0.60 0 l
0 0.10 l
0.60 0 l
0 0.06 l
0.59 0 l
0 0.13 l
0.59 0 l
0 0.13 l
0.58 0 l
0 0.13 l
0.58 0 l
0 0.03 l
0.57 0 l
0 0.13 l
0.57 0 l
0 0.03 l
0.56 0 l
0 0.10 l
0.55 0 l
0 0.03 l
0.56 0 l
0 0.06 l
0.54 0 l
0 0.13 l
0.54 0 l
0 0.10 l
0.54 0 l
0 0.12 l
0.53 0 l
0 0.07 l
0.53 0 l
0 0.06 l
0.52 0 l
0 0.07 l
0.52 0 l
0 0.06 l
0.52 0 l
0 0.06 l
0.51 0 l
0 0.04 l
0.50 0 l
0 0.03 l
0.50 0 l
0 0.19 l
0.50 0 l
0 0.10 l
0.99 0 l
0 0.03 l
0.48 0 l
0 0.06 l
0.96 0 l
0 0.07 l
0.48 0 l
0 0.06 l
0.94 0 l
0 0.10 l
0.46 0 l
0 0.12 l
0.46 0 l
0 0.07 l
0.46 0 l
0 0.03 l
0.90 0 l
0 0.10 l
1.34 0 l
0 0.06 l
0.44 0 l
0 0.10 l
0.43 0 l
0 0.03 l
0.43 0 l
0 0.03 l
0.43 0 l
0 0.10 l
0.43 0 l
0 0.09 l
0.42 0 l
0 0.03 l
0.42 0 l
0 0.07 l
0.42 0 l
0 0.03 l
0.41 0 l
0 0.03 l
0.42 0 l
0 0.03 l
0.81 0 l
0 0.10 l
0.40 0 l
0 0.03 l
0.80 0 l
0 0.07 l
0.40 0 l
0 0.06 l
0.39 0 l
0 0.13 l
0.40 0 l
512.35 486.54 lineto
1.54 0 l
0 0.04 l
0.37 0 l
0 0.06 l
0.38 0 l
0 0.03 l
0.38 0 l
0 0.03 l
0.37 0 l
0 0.07 l
0.37 0 l
0 0.13 l
0.37 0 l
0 0.03 l
0.73 0 l
0 0.03 l
0.36 0 l
0 0.03 l
0.36 0 l
0 0.03 l
0.35 0 l
0 0.07 l
0.71 0 l
0 0.03 l
0.35 0 l
0 0.06 l
0.70 0 l
0 0.04 l
0.69 0 l
0 0.03 l
1.02 0 l
0 0.03 l
0.67 0 l
0 0.03 l
0.33 0 l
0 0.03 l
0.33 0 l
0 0.07 l
0.33 0 l
0 0.03 l
0.65 0 l
0 0.03 l
0.33 0 l
0 0.07 l
0.64 0 l
0 0.03 l
0.32 0 l
0 0.03 l
0.31 0 l
0 0.06 l
0.32 0 l
0 0.07 l
0.31 0 l
0 0.06 l
0.32 0 l
0 0.03 l
0.31 0 l
0 0.07 l
1.53 0 l
0 0.03 l
0.30 0 l
0 0.03 l
0.30 0 l
0 0.03 l
0.30 0 l
0 0.04 l
0.29 0 l
0 0.03 l
1.18 0 l
0 0.06 l
0.29 0 l
0 0.03 l
0.29 0 l
0 0.04 l
0.29 0 l
0 0.03 l
0.57 0 l
0 0.03 l
0.56 0 l
0 0.06 l
0.29 0 l
0 0.04 l
0.28 0 l
0 0.06 l
0.27 0 l
0 0.03 l
1.11 0 l
0 0.03 l
0.27 0 l
0 0.04 l
0.27 0 l
0 0.03 l
0.27 0 l
0 0.03 l
0.27 0 l
0 0.03 l
0.27 0 l
0 0.03 l
0.26 0 l
536.03 488.66 lineto
0.27 0 l
0 0.03 l
0.26 0 l
0 0.03 l
0.27 0 l
0 0.13 l
0.52 0 l
0 0.06 l
0.26 0 l
0 0.03 l
1.79 0 l
0 0.04 l
0.50 0 l
0 0.03 l
0.75 0 l
0 0.13 l
0.24 0 l
0 0.03 l
0.25 0 l
0 0.06 l
0.49 0 l
0 0.03 l
0.48 0 l
0 0.04 l
0.72 0 l
0 0.06 l
0.24 0 l
0 0.03 l
0.71 0 l
0 0.03 l
0.70 0 l
0 0.04 l
0.46 0 l
0 0.03 l
0.91 0 l
0 0.06 l
0.46 0 l
0 0.03 l
1.33 0 l
0 0.04 l
0.22 0 l
0 0.06 l
0.44 0 l
0 0.03 l
0.65 0 l
0 0.07 l
0.65 0 l
0 0.03 l
0.43 0 l
0 0.06 l
0.42 0 l
0 0.03 l
0.84 0 l
0 0.04 l
0.20 0 l
0 0.03 l
0.42 0 l
0 0.03 l
0.20 0 l
0 0.03 l
2.61 0 l
0 0.03 l
0.79 0 l
0 0.04 l
0.77 0 l
0 0.03 l
0.38 0 l
0 0.03 l
0.19 0 l
0 0.06 l
0.19 0 l
0 0.04 l
0.19 0 l
0 0.03 l
1.13 0 l
0 0.03 l
0.73 0 l
0 0.03 l
0.19 0 l
0 0.03 l
0.36 0 l
0 0.04 l
0.90 0 l
0 0.09 l
2.81 0 l
0 0.03 l
0.34 0 l
0 0.04 l
0.67 0 l
0 0.03 l
0.17 0 l
0 0.03 l
0.50 0 l
0 0.03 l
1.16 0 l
0 0.03 l
0.16 0 l
0 0.04 l
0.49 0 l
566.84 490.77 lineto
0.32 0 l
0 0.03 l
0.33 0 l
0 0.03 l
0.47 0 l
0 0.03 l
1.42 0 l
0 0.04 l
0.92 0 l
0 0.03 l
0.16 0 l
0 0.13 l
1.21 0 l
0 0.03 l
1.04 0 l
0 0.03 l
0.29 0 l
0 0.03 l
0.29 0 l
0 0.03 l
0.73 0 l
0 0.04 l
1.28 0 l
0 0.03 l
0.42 0 l
0 0.03 l
1.25 0 l
0 0.03 l
0.14 0 l
0 0.03 l
0.14 0 l
0 0.04 l
1.48 0 l
0 0.03 l
0.27 0 l
0 0.03 l
0.13 0 l
0 0.03 l
2.48 0 l
0 0.03 l
1.76 0 l
0 0.04 l
0.24 0 l
0 0.03 l
1.95 0 l
0 0.03 l
0.95 0 l
0 0.03 l
0.23 0 l
0 0.03 l
1.17 0 l
0 0.04 l
0.11 0 l
0 0.03 l
1.48 0 l
0 0.03 l
0.56 0 l
0 0.03 l
0.22 0 l
0 0.03 l
0.33 0 l
0 0.07 l
0.88 0 l
0 0.03 l
0.97 0 l
0 0.03 l
0.11 0 l
0 0.03 l
3.93 0 l
0 0.04 l
0.20 0 l
0 0.03 l
0.30 0 l
0 0.03 l
1.18 0 l
0 0.03 l
0.87 0 l
0 0.03 l
0.20 0 l
0 0.04 l
0.28 0 l
0 0.03 l
1.14 0 l
0 0.03 l
5.81 0 l
0 0.03 l
0.26 0 l
0 0.03 l
1.35 0 l
0 0.04 l
4.26 0 l
0 0.03 l
1.23 0 l
0 0.03 l
1.13 0 l
0 0.03 l
1.62 0 l
0 0.03 l
0.22 0 l
616.55 492.50 lineto
0.14 0 l
0 0.03 l
1.01 0 l
0 0.03 l
0.71 0 l
0 0.03 l
0.49 0 l
0 0.03 l
1.18 0 l
0 0.04 l
1.89 0 l
0 0.03 l
0.26 0 l
0 0.03 l
2.15 0 l
0 0.03 l
1.45 0 l
0 0.03 l
1.49 0 l
0 0.04 l
0.30 0 l
0 0.03 l
0.12 0 l
0 0.03 l
0.61 0 l
0 0.03 l
0.06 0 l
0 0.03 l
0.06 0 l
0 0.04 l
1.30 0 l
0 0.03 l
2.70 0 l
0 0.03 l
0.55 0 l
0 0.03 l
1.05 0 l
0 0.03 l
0.76 0 l
0 0.04 l
5.14 0 l
0 0.03 l
0.84 0 l
0 0.03 l
3.80 0 l
0 0.03 l
0.69 0 l
0 0.03 l
0.50 0 l
0 0.04 l
0.95 0 l
0 0.03 l
2.49 0 l
0 0.03 l
0.93 0 l
0 0.03 l
1.34 0 l
0 0.03 l
0.57 0 l
0 0.04 l
0.33 0 l
0 0.03 l
0.04 0 l
0 0.03 l
0.16 0 l
0 0.03 l
0.17 0 l
0 0.03 l
0.08 0 l
0 0.04 l
0.08 0 l
0 0.03 l
0.12 0 l
0 0.03 l
0.04 0 l
0 0.03 l
0.08 0 l
0 0.03 l
0.08 0 l
0 0.04 l
0.64 0 l
0 0.03 l
4.48 0 l
0 0.03 l
4.73 0 l
0 0.03 l
1.02 0 l
0 0.03 l
0.30 0 l
0 0.04 l
1.07 0 l
0 0.03 l
1.69 0 l
0 0.03 l
5.37 0 l
0 0.03 l
11.44 0 l
o
108.00 90.00 684.00 522.00 cl
/Font1 findfont 18 s
0 0 0 srgb
374.28 107.28 (P) 0 ta
-0.720 (ack) tb
-0.360 (ets/flo) tb
-0.270 (w) tb gr
133.92 266.80 (CDF of flo) 90 ta
-0.270 (ws \(%\)) tb gr
108.00 90.00 684.00 522.00 cl
0 0 0 srgb
0.75 setlinewidth
[] 0 setdash
1 setlinecap
1 setlinejoin
10.00 setmiterlimit
np
198.13 162.00 m
428.20 0 l
o
np
198.13 162.00 m
0 -2.88 l
o
np
297.90 162.00 m
0 -2.88 l
o
np
340.87 162.00 m
0 -2.88 l
o
np
440.63 162.00 m
0 -2.88 l
o
np
483.60 162.00 m
0 -2.88 l
o
np
583.37 162.00 m
0 -2.88 l
o
np
626.33 162.00 m
0 -2.88 l
o
/Font1 findfont 14 s
198.13 138.96 (1) .5 0 t
297.90 138.96 (5) .5 0 t
340.87 138.96 (10) .5 0 t
440.63 138.96 (50) .5 0 t
483.60 138.96 (100) .5 0 t
583.37 138.96 (500) .5 0 t
626.33 138.96 (1000) .5 0 t
np
180.00 174.80 m
0 320.00 l
o
np
180.00 174.80 m
-2.88 0 l
o
np
180.00 238.80 m
-2.88 0 l
o
np
180.00 302.80 m
-2.88 0 l
o
np
180.00 366.80 m
-2.88 0 l
o
np
180.00 430.80 m
-2.88 0 l
o
np
180.00 494.80 m
-2.88 0 l
o
168.48 169.77 (0.0) 1 0 t
168.48 233.77 (0.2) 1 0 t
168.48 297.77 (0.4) 1 0 t
168.48 361.77 (0.6) 1 0 t
168.48 425.77 (0.8) 1 0 t
168.48 489.77 (1.0) 1 0 t
180.00 162.00 669.60 507.60 cl
0 0 0 srgb
0.75 setlinewidth
[] 0 setdash
1 setlinecap
1 setlinejoin
10.00 setmiterlimit
438.41 270.00 231.19 -108.00 r p1
np
454.61 248.40 m
32.40 0 l
o
1 0 0 srgb
0.75 setlinewidth
[ 2.25 3.75] 0 setdash
np
454.61 226.80 m
32.40 0 l
o
0 0.8039 0 srgb
0.75 setlinewidth
[ 0.00 3.00] 0 setdash
np
454.61 205.20 m
32.40 0 l
o
0 0 1 srgb
0.75 setlinewidth
[ 0.00 3.00 2.25 3.00] 0 setdash
np
454.61 183.60 m
32.40 0 l
o
/Font1 findfont 18 s
0 0 0 srgb
503.21 241.94 (Mobile - uplink) 0 0 t
503.21 220.34 (Nonmob - uplink) 0 0 t
503.21 198.74 (Mobile - do) 0 ta
-0.270 (wnlink) tb gr
503.21 177.14 (Nonmob - do) 0 ta
-0.270 (wnlink) tb gr
0.8275 0.8275 0.8275 srgb
0.75 setlinewidth
[ 0.00 3.00] 0 setdash
np
198.13 162.00 m
0 345.60 l
o
np
340.87 162.00 m
0 345.60 l
o
np
483.60 162.00 m
0 345.60 l
o
np
626.33 162.00 m
0 345.60 l
o
np
180.00 174.80 m
489.60 0 l
o
np
180.00 238.80 m
489.60 0 l
o
np
180.00 302.80 m
489.60 0 l
o
np
180.00 366.80 m
489.60 0 l
o
np
180.00 430.80 m
489.60 0 l
o
np
180.00 494.80 m
489.60 0 l
o
ep
%%Trailer
%%Pages: 1
%%EOF
