<?xml version="1.0" encoding="UTF-8" standalone="no"?>
<!-- Created with Inkscape (http://www.inkscape.org/) -->

<svg
   xmlns:osb="http://www.openswatchbook.org/uri/2009/osb"
   xmlns:dc="http://purl.org/dc/elements/1.1/"
   xmlns:cc="http://creativecommons.org/ns#"
   xmlns:rdf="http://www.w3.org/1999/02/22-rdf-syntax-ns#"
   xmlns:svg="http://www.w3.org/2000/svg"
   xmlns="http://www.w3.org/2000/svg"
   xmlns:xlink="http://www.w3.org/1999/xlink"
   xmlns:sodipodi="http://sodipodi.sourceforge.net/DTD/sodipodi-0.dtd"
   xmlns:inkscape="http://www.inkscape.org/namespaces/inkscape"
   width="744.09448819"
   height="1052.3622047"
   id="svg3087"
   version="1.1"
   inkscape:version="0.48.3.1 r9886"
   sodipodi:docname="test.svg"
   inkscape:export-filename="transaction.png"
   inkscape:export-xdpi="90"
   inkscape:export-ydpi="90">
  <defs
     id="defs3089">
    <marker
       inkscape:stockid="Arrow1Lend"
       orient="auto"
       refY="0.0"
       refX="0.0"
       id="Arrow1Lend"
       style="overflow:visible;">
      <path
         id="path4399"
         d="M 0.0,0.0 L 5.0,-5.0 L -12.5,0.0 L 5.0,5.0 L 0.0,0.0 z "
         style="fill-rule:evenodd;stroke:#000000;stroke-width:1.0pt;marker-start:none;"
         transform="scale(0.8) rotate(180) translate(12.5,0)" />
    </marker>
    <marker
       inkscape:stockid="Arrow1Mend"
       orient="auto"
       refY="0.0"
       refX="0.0"
       id="Arrow1Mend"
       style="overflow:visible;">
      <path
         id="path4405"
         d="M 0.0,0.0 L 5.0,-5.0 L -12.5,0.0 L 5.0,5.0 L 0.0,0.0 z "
         style="fill-rule:evenodd;stroke:#000000;stroke-width:1.0pt;marker-start:none;"
         transform="scale(0.4) rotate(180) translate(10,0)" />
    </marker>
    <linearGradient
       id="linearGradient5376">
      <stop
         style="stop-color:#000000;stop-opacity:0.627451;"
         offset="0"
         id="stop5378" />
      <stop
         id="stop5384"
         offset="0.5"
         style="stop-color:#000000;stop-opacity:0.3137255;" />
      <stop
         style="stop-color:#000000;stop-opacity:0.627451;"
         offset="1"
         id="stop5380" />
    </linearGradient>
    <linearGradient
       id="linearGradient5366">
      <stop
         style="stop-color:#000000;stop-opacity:0.627451;"
         offset="0"
         id="stop5368" />
      <stop
         id="stop5374"
         offset="0.50999999"
         style="stop-color:#000000;stop-opacity:0.3137255;" />
      <stop
         style="stop-color:#000000;stop-opacity:0.627451;"
         offset="1"
         id="stop5370" />
    </linearGradient>
    <linearGradient
       id="linearGradient5328">
      <stop
         id="stop5340"
         offset="0"
         style="stop-color:#000000;stop-opacity:0.627451;" />
      <stop
         style="stop-color:#000000;stop-opacity:0.31538463;"
         offset="0.5"
         id="stop5364" />
      <stop
         style="stop-color:#000000;stop-opacity:0.627451;"
         offset="1"
         id="stop5332" />
    </linearGradient>
    <linearGradient
       id="linearGradient5322"
       osb:paint="solid">
      <stop
         style="stop-color:#000000;stop-opacity:1;"
         offset="0"
         id="stop5324" />
    </linearGradient>
    <linearGradient
       id="linearGradient4541">
      <stop
         id="stop4543"
         offset="0"
         style="stop-color:#000000;stop-opacity:1;" />
      <stop
         id="stop4545"
         offset="1"
         style="stop-color:#000000;stop-opacity:0;" />
    </linearGradient>
    <linearGradient
       id="linearGradient4533">
      <stop
         style="stop-color:#000000;stop-opacity:1;"
         offset="0"
         id="stop4535" />
      <stop
         style="stop-color:#000000;stop-opacity:0;"
         offset="1"
         id="stop4537" />
    </linearGradient>
    <marker
       inkscape:stockid="Arrow2Mend"
       orient="auto"
       refY="0"
       refX="0"
       id="Arrow2Mend"
       style="overflow:visible">
      <path
         inkscape:connector-curvature="0"
         id="path5522"
         style="fill-rule:evenodd;stroke-width:0.625;stroke-linejoin:round"
         d="M 8.7185878,4.0337352 -2.2072895,0.01601326 8.7185884,-4.0017078 c -1.7454984,2.3720609 -1.7354408,5.6174519 -6e-7,8.035443 z"
         transform="scale(-0.6,-0.6)" />
    </marker>
    <marker
       inkscape:stockid="Arrow2Mend"
       orient="auto"
       refY="0"
       refX="0"
       id="marker3120"
       style="overflow:visible">
      <path
         inkscape:connector-curvature="0"
         id="path3122"
         style="fill-rule:evenodd;stroke-width:0.625;stroke-linejoin:round"
         d="M 8.7185878,4.0337352 -2.2072895,0.01601326 8.7185884,-4.0017078 c -1.7454984,2.3720609 -1.7354408,5.6174519 -6e-7,8.035443 z"
         transform="scale(-0.6,-0.6)" />
    </marker>
    <marker
       inkscape:stockid="Arrow2Mend"
       orient="auto"
       refY="0"
       refX="0"
       id="marker3120-3"
       style="overflow:visible">
      <path
         inkscape:connector-curvature="0"
         id="path3122-2"
         style="fill-rule:evenodd;stroke-width:0.625;stroke-linejoin:round"
         d="M 8.7185878,4.0337352 -2.2072895,0.01601326 8.7185884,-4.0017078 c -1.7454984,2.3720609 -1.7354408,5.6174519 -6e-7,8.035443 z"
         transform="scale(-0.6,-0.6)" />
    </marker>
    <marker
       inkscape:stockid="Arrow2Mend"
       orient="auto"
       refY="0"
       refX="0"
       id="marker3120-4"
       style="overflow:visible">
      <path
         inkscape:connector-curvature="0"
         id="path3122-0"
         style="fill-rule:evenodd;stroke-width:0.625;stroke-linejoin:round"
         d="M 8.7185878,4.0337352 -2.2072895,0.01601326 8.7185884,-4.0017078 c -1.7454984,2.3720609 -1.7354408,5.6174519 -6e-7,8.035443 z"
         transform="scale(-0.6,-0.6)" />
    </marker>
    <marker
       inkscape:stockid="Arrow2Mend"
       orient="auto"
       refY="0"
       refX="0"
       id="marker3120-35"
       style="overflow:visible">
      <path
         inkscape:connector-curvature="0"
         id="path3122-5"
         style="fill-rule:evenodd;stroke-width:0.625;stroke-linejoin:round"
         d="M 8.7185878,4.0337352 -2.2072895,0.01601326 8.7185884,-4.0017078 c -1.7454984,2.3720609 -1.7354408,5.6174519 -6e-7,8.035443 z"
         transform="scale(-0.6,-0.6)" />
    </marker>
    <marker
       inkscape:stockid="Arrow2Mend"
       orient="auto"
       refY="0"
       refX="0"
       id="marker3120-1"
       style="overflow:visible">
      <path
         inkscape:connector-curvature="0"
         id="path3122-56"
         style="fill-rule:evenodd;stroke-width:0.625;stroke-linejoin:round"
         d="M 8.7185878,4.0337352 -2.2072895,0.01601326 8.7185884,-4.0017078 c -1.7454984,2.3720609 -1.7354408,5.6174519 -6e-7,8.035443 z"
         transform="scale(-0.6,-0.6)" />
    </marker>
    <marker
       inkscape:stockid="Arrow2Mend"
       orient="auto"
       refY="0"
       refX="0"
       id="marker3120-8"
       style="overflow:visible">
      <path
         inkscape:connector-curvature="0"
         id="path3122-02"
         style="fill-rule:evenodd;stroke-width:0.625;stroke-linejoin:round"
         d="M 8.7185878,4.0337352 -2.2072895,0.01601326 8.7185884,-4.0017078 c -1.7454984,2.3720609 -1.7354408,5.6174519 -6e-7,8.035443 z"
         transform="scale(-0.6,-0.6)" />
    </marker>
    <marker
       inkscape:stockid="Arrow2Mend"
       orient="auto"
       refY="0"
       refX="0"
       id="marker3120-7"
       style="overflow:visible">
      <path
         inkscape:connector-curvature="0"
         id="path3122-6"
         style="fill-rule:evenodd;stroke-width:0.625;stroke-linejoin:round"
         d="M 8.7185878,4.0337352 -2.2072895,0.01601326 8.7185884,-4.0017078 c -1.7454984,2.3720609 -1.7354408,5.6174519 -6e-7,8.035443 z"
         transform="scale(-0.6,-0.6)" />
    </marker>
    <marker
       inkscape:stockid="Arrow2Mend"
       orient="auto"
       refY="0"
       refX="0"
       id="marker3120-46"
       style="overflow:visible">
      <path
         inkscape:connector-curvature="0"
         id="path3122-62"
         style="fill-rule:evenodd;stroke-width:0.625;stroke-linejoin:round"
         d="M 8.7185878,4.0337352 -2.2072895,0.01601326 8.7185884,-4.0017078 c -1.7454984,2.3720609 -1.7354408,5.6174519 -6e-7,8.035443 z"
         transform="scale(-0.6,-0.6)" />
    </marker>
    <marker
       inkscape:stockid="Arrow2Mend"
       orient="auto"
       refY="0"
       refX="0"
       id="marker6851"
       style="overflow:visible">
      <path
         inkscape:connector-curvature="0"
         id="path6853"
         style="fill-rule:evenodd;stroke-width:0.625;stroke-linejoin:round"
         d="M 8.7185878,4.0337352 -2.2072895,0.01601326 8.7185884,-4.0017078 c -1.7454984,2.3720609 -1.7354408,5.6174519 -6e-7,8.035443 z"
         transform="scale(-0.6,-0.6)" />
    </marker>
    <marker
       inkscape:stockid="Arrow2Mend"
       orient="auto"
       refY="0"
       refX="0"
       id="marker6855"
       style="overflow:visible">
      <path
         inkscape:connector-curvature="0"
         id="path6857"
         style="fill-rule:evenodd;stroke-width:0.625;stroke-linejoin:round"
         d="M 8.7185878,4.0337352 -2.2072895,0.01601326 8.7185884,-4.0017078 c -1.7454984,2.3720609 -1.7354408,5.6174519 -6e-7,8.035443 z"
         transform="scale(-0.6,-0.6)" />
    </marker>
    <marker
       inkscape:stockid="Arrow2Mend"
       orient="auto"
       refY="0"
       refX="0"
       id="marker6859"
       style="overflow:visible">
      <path
         inkscape:connector-curvature="0"
         id="path6861"
         style="fill-rule:evenodd;stroke-width:0.625;stroke-linejoin:round"
         d="M 8.7185878,4.0337352 -2.2072895,0.01601326 8.7185884,-4.0017078 c -1.7454984,2.3720609 -1.7354408,5.6174519 -6e-7,8.035443 z"
         transform="scale(-0.6,-0.6)" />
    </marker>
    <marker
       inkscape:stockid="Arrow2Mend"
       orient="auto"
       refY="0"
       refX="0"
       id="marker6863"
       style="overflow:visible">
      <path
         inkscape:connector-curvature="0"
         id="path6865"
         style="fill-rule:evenodd;stroke-width:0.625;stroke-linejoin:round"
         d="M 8.7185878,4.0337352 -2.2072895,0.01601326 8.7185884,-4.0017078 c -1.7454984,2.3720609 -1.7354408,5.6174519 -6e-7,8.035443 z"
         transform="scale(-0.6,-0.6)" />
    </marker>
    <marker
       inkscape:stockid="Arrow2Mend"
       orient="auto"
       refY="0"
       refX="0"
       id="marker6867"
       style="overflow:visible">
      <path
         inkscape:connector-curvature="0"
         id="path6869"
         style="fill-rule:evenodd;stroke-width:0.625;stroke-linejoin:round"
         d="M 8.7185878,4.0337352 -2.2072895,0.01601326 8.7185884,-4.0017078 c -1.7454984,2.3720609 -1.7354408,5.6174519 -6e-7,8.035443 z"
         transform="scale(-0.6,-0.6)" />
    </marker>
    <marker
       inkscape:stockid="Arrow2Mend"
       orient="auto"
       refY="0"
       refX="0"
       id="marker6871"
       style="overflow:visible">
      <path
         inkscape:connector-curvature="0"
         id="path6873"
         style="fill-rule:evenodd;stroke-width:0.625;stroke-linejoin:round"
         d="M 8.7185878,4.0337352 -2.2072895,0.01601326 8.7185884,-4.0017078 c -1.7454984,2.3720609 -1.7354408,5.6174519 -6e-7,8.035443 z"
         transform="scale(-0.6,-0.6)" />
    </marker>
    <marker
       inkscape:stockid="Arrow2Mend"
       orient="auto"
       refY="0"
       refX="0"
       id="marker6875"
       style="overflow:visible">
      <path
         inkscape:connector-curvature="0"
         id="path6877"
         style="fill-rule:evenodd;stroke-width:0.625;stroke-linejoin:round"
         d="M 8.7185878,4.0337352 -2.2072895,0.01601326 8.7185884,-4.0017078 c -1.7454984,2.3720609 -1.7354408,5.6174519 -6e-7,8.035443 z"
         transform="scale(-0.6,-0.6)" />
    </marker>
    <marker
       inkscape:stockid="Arrow2Mend"
       orient="auto"
       refY="0"
       refX="0"
       id="marker3120-6"
       style="overflow:visible">
      <path
         inkscape:connector-curvature="0"
         id="path3122-26"
         style="fill-rule:evenodd;stroke-width:0.625;stroke-linejoin:round"
         d="M 8.7185878,4.0337352 -2.2072895,0.01601326 8.7185884,-4.0017078 c -1.7454984,2.3720609 -1.7354408,5.6174519 -6e-7,8.035443 z"
         transform="scale(-0.6,-0.6)" />
    </marker>
    <marker
       inkscape:stockid="Arrow2Mend"
       orient="auto"
       refY="0"
       refX="0"
       id="marker7054"
       style="overflow:visible">
      <path
         inkscape:connector-curvature="0"
         id="path7056"
         style="fill-rule:evenodd;stroke-width:0.625;stroke-linejoin:round"
         d="M 8.7185878,4.0337352 -2.2072895,0.01601326 8.7185884,-4.0017078 c -1.7454984,2.3720609 -1.7354408,5.6174519 -6e-7,8.035443 z"
         transform="scale(-0.6,-0.6)" />
    </marker>
    <marker
       inkscape:stockid="Arrow2Mend"
       orient="auto"
       refY="0"
       refX="0"
       id="marker7058"
       style="overflow:visible">
      <path
         inkscape:connector-curvature="0"
         id="path7060"
         style="fill-rule:evenodd;stroke-width:0.625;stroke-linejoin:round"
         d="M 8.7185878,4.0337352 -2.2072895,0.01601326 8.7185884,-4.0017078 c -1.7454984,2.3720609 -1.7354408,5.6174519 -6e-7,8.035443 z"
         transform="scale(-0.6,-0.6)" />
    </marker>
    <marker
       inkscape:stockid="Arrow2Mend"
       orient="auto"
       refY="0"
       refX="0"
       id="marker7058-9"
       style="overflow:visible">
      <path
         inkscape:connector-curvature="0"
         id="path7060-1"
         style="fill-rule:evenodd;stroke-width:0.625;stroke-linejoin:round"
         d="M 8.7185878,4.0337352 -2.2072895,0.01601326 8.7185884,-4.0017078 c -1.7454984,2.3720609 -1.7354408,5.6174519 -6e-7,8.035443 z"
         transform="scale(-0.6,-0.6)" />
    </marker>
  </defs>
  <sodipodi:namedview
     id="base"
     pagecolor="#ffffff"
     bordercolor="#666666"
     borderopacity="1.0"
     inkscape:pageopacity="0.0"
     inkscape:pageshadow="2"
     inkscape:zoom="1.979899"
     inkscape:cx="393.46741"
     inkscape:cy="695.09915"
     inkscape:document-units="px"
     inkscape:current-layer="layer1"
     showgrid="false"
     inkscape:window-width="1920"
     inkscape:window-height="1021"
     inkscape:window-x="0"
     inkscape:window-y="27"
     inkscape:window-maximized="1" />
  <metadata
     id="metadata3092">
    <rdf:RDF>
      <cc:Work
         rdf:about="">
        <dc:format>image/svg+xml</dc:format>
        <dc:type
           rdf:resource="http://purl.org/dc/dcmitype/StillImage" />
        <dc:title />
      </cc:Work>
    </rdf:RDF>
  </metadata>
  <g
     inkscape:label="Layer 1"
     inkscape:groupmode="layer"
     id="layer1">
    <rect
       style="fill:none;stroke:#8c8c8c;stroke-width:1.25000000000000000;stroke-linejoin:round;stroke-miterlimit:4;stroke-opacity:1;stroke-dasharray:none;stroke-dashoffset:0;opacity:1"
       id="rect3004-0"
       width="493.95999"
       height="96.987198"
       x="63.679852"
       y="319.52994"
       rx="1.9611707"
       ry="6.035955" />
    <image
       y="348.92831"
       x="582.92395"
       id="image3125"
       xlink:href="data:image/png;base64,iVBORw0KGgoAAAANSUhEUgAAAHcAAAB8CAYAAABT/i9JAAAABHNCSVQICAgIfAhkiAAACHdJREFU eJztmttPE80bx7976PYkylYoiByjIBdIlRhCRGK4QCWSeKmGeKUX6n/BX+CdN0aNiYnGKB4iF0YJ EDVqSTAQKkESUSsnoVi2hd2edt6L3w8iWkH07WyZdz7JJs3uzj7PzGdnZne2AIfD4XCyCIFWIEII Wf5979493LlzB0NDQ5iamkIikVg+B9+d9hOiKEIQBAjC6rQJITBN86eyqVQKpmmuOm+9GOlYjikI AkRRhCzLEEURhBAkk0mkUikQQiDLMlwuF3Jzc1FaWoqamhq0tbWhtbX1+2tRa3OZViAAGBwcxKNH jzA8PIxAIIC5uTkYhrEiYL1GX26XdHLTlf1x/0al/ngtADBNE4lEYiWH5ZuKEIJUKgXDMBAOh0EI ga7rWFhYwMDAANra2uDz+f44flYTCoVIR0cHURSFCIJABEEgAJjdlusoiiJRFIV0dHSQUCj053fX H0Ct5966dQsvX75EPB6nFdJSlns6IQTxeBwvXryAqqpUc6Am9/bt2/j8+TMEQfir4XEzIggCRkdH oes63bi0AqmqSgzDoF7BbMHpdMLlciEUClFrc2qB8L+56D/N/0ctLpdhqLW5SCsQhz5cLsNwuQzD 5TIMl8swVNeWv8dmsyE3NxeyLCOVSlmVRkaQJAnJZBILCwuWrshZJnfXrl1oaWmBqqpYWlqyKo2M 4HK5oGka+vr68PbtW8vyoC5XlmUUFRXhyJEjaG9vh6qqMAyDdhoZxeFwIBKJwOPxIJVKYXR0FLFY jHoelsitrKxEQ0MDfD4f7HY77RSokEwmEY1GMT4+jo8fP1oi15IHKlEUoSgKFEWxIjwVZFmG3W6H LMs/fX+mBXW5y5/AdF235G6mRSKRwNLS0qo/I9CGvwoxDJfLMFwuw3C5DMPlMgyXyzBcLsNwuQzD 5TIMl8swXC7DcLkMw+UyDJfLMFwuw3C5DMPlMgyXyzBcLsNwuQzD5TIMl8swXC7DcLkMw+UyDJfL MFwuw3C5DMPlMgyXyzBcLsNwuQzD5TIMl8swXC7DcLkMw+UyDJfLMFwuw3C5DMPlMgyXyzBcLsNw uQzD5TIMl8swXC7DcLkMw+UyDJfLMFwuw3C5DMPlMgyXyzBcLsNwuQzD5TIMl8swXC7DcLkMw+Uy DJfLMFwuw3C5DMPlMgyXyzBcLsNwuQzD5TIMl8swXC7DcLkMw+UyDJfLMNTlCoIAh8MBh8MBSZJo h6eGJElwOp1wOp0QRWv6EPWohBDouo5YLGZZpWkgiiIMw8DS0hJM07QkB5l2wEQigbGxMYyNjSES iSA3NxeGYdBOI6M4HA5Eo1GMjIzg3bt3ltWPulzTNDE1NYXu7m64XC54PB5Eo1EQQminkjFycnKg aRqePn2K0dFRJBIJS/IQKMZaZc9ms8HpdEKSpIwOW6ZpwjTNlZtHEASIoghBECAImam+KIowTRO6 riMej/94mFqbWyb3Pwy1Nqc+LNNGlmUUFxfD6/VCkiRomobJyUl8+/bN6tQyDtNy3W439u7di5aW FtTX10NRFHz48AHPnz9Hb28vpqenf3tKEARh0z0XbIphWRAElJeXw+PxYGZmBl++fFnzfFEUUVZW hqamJrS2tmLfvn2oqKiAJEmYm5vD2NgYBgYG0NXVhWfPnq0rraSkBGVlZVhcXEQgEEg3j26oOn9T eCNkdc+VZRn5+fnw+Xw4cOAAvF4vgsEg+vv7MTIygpmZmbTlJElCY2Mjzp07h4MHD65aLCksLERh YSHq6+ths9kQCAR+2YO3b9+O3bt34/Dhw6iuroamaejv70d/fz8+fvz4t5KZgmx0U1WVXLhwgXR3 d5OJiQkyOztLgsEgefPmDWlvb1+z3OXLl4mu62Qtenp6SGtrK8nJyUl7nePHj5OHDx+SYDBI5ufn ydevX8nY2Bi5dOkS2bFjx4brA8oPlVndc7ds2YKmpiY0Nzevem0pLi5GbW0tHj9+jIWFhVVlnE4n 9uzZg6qqKjgcjjWvX1JSgvr6erx//x6RSOSn45WVlTh69CjsdvvKvvz8fDQ0NMDr9WJqauova5hZ snr9T1EU7Ny5M+37qKIoqxp9GbvdjoqKCrjd7nWvv3XrVpSWlkJV1bTH3W532hiiKEJRlN+ogbVk tVwAv1x/1jQNmqb9tD+ZTCIWiyGZTK577VQqhXg8/lvnfk8sFkM0Gt1QGSvIarnhcBidnZ3w+/0r +5LJJPr6+uD3+9Ou2RqGgfHx8d9a8guFQnj9+jWmp6fTHvf7/ejs7MTs7OzKvsHBQXR1df3yYS6b yOo5d35+HteuXYOmabDZbCgoKEAgEMDVq1fx6tWrtGWSySQ+ffqE4eFh1NXVYdu2bWnP03Udfr8f vb29vxTV09ODcDiMcDiMY8eOYXJyEjdv3sTdu3c3xSLIpnjP9Xq98Pl8cLvdCIVCGB4eXrNxRVGE z+fDmTNncPHixbTz5v3793HlyhU8efJkzYUMURRRW1uL8vLylS89ExMTf1oVgK8t/zvU1NTg/Pnz qKioQE5ODiRJQiQSQTAYxIMHD9DX12fF3MmeXFVViWEY0HWdVkiIoghVVVFUVITi4mLY7XZMTExg fHwckUgEsViMWi52ux12ux2aptHsUHQ4dOgQKS0tJYIg/OnL/19tDoeDuN1uS2IDIIWFhWT//v1U Ry9qT8unTp1CdXW1ZYvvhmFgcXHRktgAUFVVhZMnT1KNSU3u6dOn0djYCEVRMvqhPJtYrqeiKGhq asLZs2epxqf2KuTxeHDixAkAwMDAAIaGhjAzMwNd1zfdp7T1EAQBLpcLBQUFqK2tRV1dHdra2pCX l2d1apnh+wX769evk+bmZpKXl2fZHJzJTRAEUlBQQFpaWsiNGzdWfaz4d1uVw+FwOBxONvAPJroq Pd8MygMAAAAASUVORK5CYII= "
       height="114.81854"
       width="110.18875" />
    <path
       transform="matrix(1.925002,0,0,1.925002,185.90301,-429.13926)"
       sodipodi:type="arc"
       style="fill:none;stroke:#000000;stroke-width:1;stroke-miterlimit:4;stroke-opacity:1;stroke-dasharray:none;stroke-dashoffset:0;opacity:1"
       id="path3175-9-0-5-6-3-6-3-0"
       sodipodi:cx="42.678944"
       sodipodi:cy="404.09677"
       sodipodi:rx="5.8083773"
       sodipodi:ry="5.8083773"
       d="m 48.487321,404.09677 a 5.8083773,5.8083773 0 1 1 -11.616755,0 5.8083773,5.8083773 0 1 1 11.616755,0 z" />
    <path
       transform="matrix(1.925002,0,0,1.925002,239.64753,-429.13923)"
       sodipodi:type="arc"
       style="fill:none;stroke:#000000;stroke-width:1;stroke-miterlimit:4;stroke-opacity:1;stroke-dasharray:none;stroke-dashoffset:0;opacity:1"
       id="path3175-9-0-5-6-3-6-3-0-8"
       sodipodi:cx="42.678944"
       sodipodi:cy="404.09677"
       sodipodi:rx="5.8083773"
       sodipodi:ry="5.8083773"
       d="m 48.487321,404.09677 a 5.8083773,5.8083773 0 1 1 -11.616755,0 5.8083773,5.8083773 0 1 1 11.616755,0 z" />
    <path
       transform="matrix(1.925002,0,0,1.925002,293.39207,-428.49944)"
       sodipodi:type="arc"
       style="fill:none;stroke:#000000;stroke-width:0.82257742000000000;stroke-miterlimit:4;stroke-opacity:1;stroke-dasharray:none;stroke-dashoffset:0;opacity:1"
       id="path3175-9-0-5-6-3-6-3-0-8-4"
       sodipodi:cx="42.678944"
       sodipodi:cy="404.09677"
       sodipodi:rx="5.8083773"
       sodipodi:ry="5.8083773"
       d="m 48.487321,404.09677 a 5.8083773,5.8083773 0 1 1 -11.616755,0 5.8083773,5.8083773 0 1 1 11.616755,0 z" />
    <path
       style="fill:none;stroke:#000000;stroke-width:1.58346319000000002;stroke-linecap:butt;stroke-linejoin:miter;stroke-miterlimit:4;stroke-opacity:1;stroke-dasharray:none;marker-end:url(#marker3120);opacity:1"
       d="m 311.01229,349.36332 c -7.67777,0 -15.35557,0 -23.03336,0 -1.27964,0 -2.55926,0 -3.8389,0 -0.63982,0 -1.34719,-0.28614 -1.91944,0 -0.19077,0.0953 0,0.42655 0,0.6398 -0.42654,0 -0.85309,0 -1.27964,0"
       id="path3425-1"
       inkscape:connector-curvature="0" />
    <path
       style="fill:none;stroke:#000000;stroke-width:1.58346319000000002;stroke-linecap:butt;stroke-linejoin:miter;stroke-miterlimit:4;stroke-opacity:1;stroke-dasharray:none;marker-end:url(#marker3120);opacity:1"
       d="m 364.75683,348.08371 c -7.6778,0 -15.35559,0 -23.03339,0 -1.27961,0 -2.55926,0 -3.8389,0 -0.63979,0 -1.34716,-0.28614 -1.91943,0 -0.19078,0.0953 0,0.42654 0,0.63979 -0.42655,0 -0.8531,0 -1.27964,0"
       id="path3425-0"
       inkscape:connector-curvature="0" />
    <path
       transform="matrix(1.925002,0,0,1.925002,274.19758,-388.83087)"
       sodipodi:type="arc"
       style="fill:none;stroke:#000000;stroke-width:1;stroke-miterlimit:4;stroke-opacity:1;stroke-dasharray:none;stroke-dashoffset:0;opacity:1"
       id="path3175-9-0-5-6-3-6-3-0-8-4-0-05"
       sodipodi:cx="42.678944"
       sodipodi:cy="404.09677"
       sodipodi:rx="5.8083773"
       sodipodi:ry="5.8083773"
       d="m 48.487321,404.09677 a 5.8083773,5.8083773 0 1 1 -11.616755,0 5.8083773,5.8083773 0 1 1 11.616755,0 z" />
    <path
       style="fill:none;stroke:#000000;stroke-width:1.58346319000000002;stroke-linecap:butt;stroke-linejoin:miter;stroke-miterlimit:4;stroke-opacity:1;stroke-dasharray:none;marker-end:url(#marker3120);opacity:1"
       d="M 345.91468,384.512 325.79053,361.30215"
       id="path6359-4"
       inkscape:connector-curvature="0" />
    <g
       id="g6716"
       transform="matrix(2.5335411,0,0,2.5335411,-182.3514,-820.28616)"
       style="opacity:1">
      <path
         d="m 48.487321,404.09677 c 0,3.20788 -2.600499,5.80838 -5.808377,5.80838 -3.207879,0 -5.808378,-2.6005 -5.808378,-5.80838 0,-3.20788 2.600499,-5.80838 5.808378,-5.80838 3.207878,0 5.808377,2.6005 5.808377,5.80838 z"
         sodipodi:ry="5.8083773"
         sodipodi:rx="5.8083773"
         sodipodi:cy="404.09677"
         sodipodi:cx="42.678944"
         id="path3175-9-0-5-6-3-6-3-0-8-4-0"
         style="fill:none;stroke:#000000;stroke-width:1;stroke-miterlimit:4;stroke-opacity:1;stroke-dasharray:none;stroke-dashoffset:0"
         sodipodi:type="arc"
         transform="matrix(0.75980688,0,0,0.75980688,217.07992,160.95342)" />
      <path
         d="m 48.487321,404.09677 c 0,3.20788 -2.600499,5.80838 -5.808377,5.80838 -3.207879,0 -5.808378,-2.6005 -5.808378,-5.80838 0,-3.20788 2.600499,-5.80838 5.808378,-5.80838 3.207878,0 5.808377,2.6005 5.808377,5.80838 z"
         sodipodi:ry="5.8083773"
         sodipodi:rx="5.8083773"
         sodipodi:cy="404.09677"
         sodipodi:cx="42.678944"
         id="path3175-9-0-5-6-3-6-3-0-8-4-0-0"
         style="fill:none;stroke:#000000;stroke-width:1;stroke-miterlimit:4;stroke-opacity:1;stroke-dasharray:none;stroke-dashoffset:0"
         sodipodi:type="arc"
         transform="matrix(0.75980688,0,0,0.75980688,239.30327,151.60951)" />
      <path
         d="m 48.487321,404.09677 c 0,3.20788 -2.600499,5.80838 -5.808377,5.80838 -3.207879,0 -5.808378,-2.6005 -5.808378,-5.80838 0,-3.20788 2.600499,-5.80838 5.808378,-5.80838 3.207878,0 5.808377,2.6005 5.808377,5.80838 z"
         sodipodi:ry="5.8083773"
         sodipodi:rx="5.8083773"
         sodipodi:cy="404.09677"
         sodipodi:cx="42.678944"
         id="path3175-9-0-5-6-3-6-3-0-8-4-0-0-4"
         style="fill:none;stroke:#000000;stroke-width:1;stroke-miterlimit:4;stroke-opacity:1;stroke-dasharray:none;stroke-dashoffset:0"
         sodipodi:type="arc"
         transform="matrix(0.75980688,0,0,0.75980688,240.31343,172.31764)" />
      <path
         inkscape:connector-curvature="0"
         id="path3425-1-9"
         d="m 267.35948,458.35137 c -3.22527,1.93683 -6.45055,3.87366 -9.67582,5.81049 -0.53755,0.32281 -1.07509,0.64562 -1.61263,0.96842 -0.26878,0.1614 -0.56593,0.25554 -0.80633,0.4842 -0.0802,0.0762 0,0.12568 0,0.18851 -0.17918,0.1076 -0.35836,0.21521 -0.53754,0.32281"
         style="fill:none;stroke:#000000;stroke-width:0.55708104000000003;stroke-linecap:butt;stroke-linejoin:miter;stroke-miterlimit:4;stroke-opacity:1;stroke-dasharray:none;marker-end:url(#marker3120)" />
      <path
         inkscape:connector-curvature="0"
         id="path3425-1-9-2"
         d="m 268.17009,477.9472 c -3.52817,-2.12862 -7.05637,-4.25724 -10.58455,-6.38586 -0.58804,-0.35478 -1.17607,-0.70954 -1.76409,-1.06431 -0.29402,-0.17739 -0.51468,-0.39719 -0.88205,-0.53216 -0.12246,-0.045 -0.15563,0.0353 -0.23342,0.0529 -0.19602,-0.11825 -0.39204,-0.23651 -0.58804,-0.35477"
         style="fill:none;stroke:#000000;stroke-width:0.59078825000000001;stroke-linecap:butt;stroke-linejoin:miter;stroke-miterlimit:4;stroke-opacity:1;stroke-dasharray:none;marker-end:url(#marker3120)" />
    </g>
    <g
       id="g6774"
       transform="matrix(2.5335411,0,0,2.5335411,-78.977301,-827.32414)"
       style="opacity:1">
      <path
         d="m 48.487321,404.09677 c 0,3.20788 -2.600499,5.80838 -5.808377,5.80838 -3.207879,0 -5.808378,-2.6005 -5.808378,-5.80838 0,-3.20788 2.600499,-5.80838 5.808378,-5.80838 3.207878,0 5.808377,2.6005 5.808377,5.80838 z"
         sodipodi:ry="5.8083773"
         sodipodi:rx="5.8083773"
         sodipodi:cy="404.09677"
         sodipodi:cx="42.678944"
         id="path3175-9-0-5-6-3"
         style="fill:none;stroke:#000000;stroke-width:1;stroke-miterlimit:4;stroke-opacity:1;stroke-dasharray:none;stroke-dashoffset:0"
         sodipodi:type="arc"
         transform="matrix(0.75980688,0,0,0.75980688,37.27277,157.4179)" />
      <path
         d="m 48.487321,404.09677 c 0,3.20788 -2.600499,5.80838 -5.808377,5.80838 -3.207879,0 -5.808378,-2.6005 -5.808378,-5.80838 0,-3.20788 2.600499,-5.80838 5.808378,-5.80838 3.207878,0 5.808377,2.6005 5.808377,5.80838 z"
         sodipodi:ry="5.8083773"
         sodipodi:rx="5.8083773"
         sodipodi:cy="404.09677"
         sodipodi:cx="42.678944"
         id="path3175-9-0-5-6-3-6"
         style="fill:none;stroke:#000000;stroke-width:1;stroke-miterlimit:4;stroke-opacity:1;stroke-dasharray:none;stroke-dashoffset:0"
         sodipodi:type="arc"
         transform="matrix(0.75980688,0,0,0.75980688,58.485973,157.4179)" />
      <path
         d="m 48.487321,404.09677 c 0,3.20788 -2.600499,5.80838 -5.808377,5.80838 -3.207879,0 -5.808378,-2.6005 -5.808378,-5.80838 0,-3.20788 2.600499,-5.80838 5.808378,-5.80838 3.207878,0 5.808377,2.6005 5.808377,5.80838 z"
         sodipodi:ry="5.8083773"
         sodipodi:rx="5.8083773"
         sodipodi:cy="404.09677"
         sodipodi:cx="42.678944"
         id="path3175-9-0-5-6-3-6-3"
         style="fill:none;stroke:#000000;stroke-width:1;stroke-miterlimit:4;stroke-opacity:1;stroke-dasharray:none;stroke-dashoffset:0"
         sodipodi:type="arc"
         transform="matrix(0.75980688,0,0,0.75980688,58.233428,172.82273)" />
      <path
         inkscape:connector-curvature="0"
         id="path3425"
         d="m 86.368042,464.45341 c -3.030458,0 -6.060915,0 -9.091373,0 -0.505076,0 -1.010152,0 -1.515229,0 -0.252538,0 -0.531737,-0.11294 -0.757614,0 -0.07529,0.0376 0,0.16836 0,0.25253 -0.168359,0 -0.336718,0 -0.505076,0"
         style="fill:none;stroke:#000000;stroke-width:0.62500000000000000;stroke-linecap:butt;stroke-linejoin:miter;stroke-miterlimit:4;stroke-opacity:1;stroke-dasharray:none;marker-end:url(#marker3120)" />
      <path
         inkscape:connector-curvature="0"
         id="path6359"
         d="M 86.775577,478.498 73.128626,468.28092"
         style="fill:none;stroke:#000000;stroke-width:0.62500000000000000;stroke-linecap:butt;stroke-linejoin:miter;stroke-miterlimit:4;stroke-opacity:1;stroke-dasharray:none;marker-end:url(#marker3120)" />
      <path
         d="m 48.487321,404.09677 c 0,3.20788 -2.600499,5.80838 -5.808377,5.80838 -3.207879,0 -5.808378,-2.6005 -5.808378,-5.80838 0,-3.20788 2.600499,-5.80838 5.808378,-5.80838 3.207878,0 5.808377,2.6005 5.808377,5.80838 z"
         sodipodi:ry="5.8083773"
         sodipodi:rx="5.8083773"
         sodipodi:cy="404.09677"
         sodipodi:cx="42.678944"
         id="path3175-9-0-5-6-3-6-6"
         style="fill:none;stroke:#000000;stroke-width:1;stroke-miterlimit:4;stroke-opacity:1;stroke-dasharray:none;stroke-dashoffset:0"
         sodipodi:type="arc"
         transform="matrix(0.75980688,0,0,0.75980688,80.204253,173.3278)" />
      <path
         inkscape:connector-curvature="0"
         id="path3425-12"
         d="m 107.86716,479.84863 c -3.03045,0 -6.06091,0 -9.091369,0 -0.505076,0 -1.010152,0 -1.515229,0 -0.252538,0 -0.531737,-0.11294 -0.757614,0 -0.07529,0.0376 0,0.16836 0,0.25253 -0.168359,0 -0.336718,0 -0.505076,0"
         style="fill:none;stroke:#000000;stroke-width:0.62500000000000000;stroke-linecap:butt;stroke-linejoin:miter;stroke-miterlimit:4;stroke-opacity:1;stroke-dasharray:none;marker-end:url(#marker3120)" />
    </g>
    <rect
       style="fill:none;stroke:#ff0000;stroke-width:1.77978181999999996;stroke-miterlimit:4;stroke-opacity:1;stroke-dasharray:1.77978181000000002, 3.55956368000000012;stroke-dashoffset:0;opacity:1"
       id="rect6801"
       width="146.31792"
       height="78.720741"
       x="78.773529"
       y="329.24698"
       rx="2.8378067"
       ry="6.736784" />
    <rect
       style="fill:none;stroke:#ff0000;stroke-width:1.77978181999999996;stroke-miterlimit:4;stroke-opacity:1;stroke-dasharray:1.77978181000000002, 3.55956368000000012;stroke-dashoffset:0;opacity:1"
       id="rect6801-6"
       width="146.31792"
       height="78.720741"
       x="250.79645"
       y="328.79449"
       rx="2.8378067"
       ry="6.736784" />
    <rect
       style="fill:none;stroke:#ff0000;stroke-width:1.65065478999999993;stroke-miterlimit:4;stroke-opacity:1;stroke-dasharray:1.65065481000000003, 3.30130969000000007;stroke-dashoffset:0;opacity:1"
       id="rect6801-6-8"
       width="125.85674"
       height="78.720741"
       x="415.8519"
       y="328.79449"
       rx="2.4409664"
       ry="6.736784" />
    <path
       style="fill:none;stroke:#8c8c8c;stroke-width:1.25000000000000000;stroke-linejoin:round;stroke-miterlimit:4;stroke-opacity:1;stroke-dasharray:none;stroke-dashoffset:0;opacity:1"
       d="m 90.337206,418.99395 c -0.53914,-0.0512 -1.025816,0.11654 -1.398201,0.47504 L 60.39925,446.94207 c -0.74477,0.71695 -0.660958,1.97647 0.246742,2.85024 l 27.964023,26.91887 c 0.907702,0.87377 2.216129,1.03364 2.960899,0.31669 l -0.047,-11.71762 c 154.503166,0 309.006386,0 463.509576,0 1.05327,0 1.89167,-0.98114 1.89167,-2.21685 l 0,-31.35257 c 0,-1.23571 -0.8384,-2.21685 -1.89167,-2.21685 l -463.274583,0 0.140992,-9.81747 c 0.0089,-0.61778 -1.023556,-0.66138 -1.562694,-0.71256 z"
       id="rect3004-0-95"
       inkscape:connector-curvature="0"
       sodipodi:nodetypes="scssssccssscss" />
    <text
       xml:space="preserve"
       style="font-size:101.34164429000000496px;font-style:normal;font-weight:normal;line-height:125%;letter-spacing:0px;word-spacing:0px;fill:#000000;fill-opacity:1;stroke:none;font-family:Sans;opacity:1"
       x="124.89149"
       y="453.20947"
       id="text7030"
       sodipodi:linespacing="125%"><tspan
         sodipodi:role="line"
         id="tspan7032"
         x="124.89149"
         y="453.20947"
         style="font-size:20.26832961999999938px;font-family:Times New Roman;-inkscape-font-specification:Times New Roman">Background traffic (analytics, ads, logs etc.)</tspan></text>
    <image
       y="334.78128"
       x="186.90385"
       id="image7267"
       xlink:href="data:image/png;base64,iVBORw0KGgoAAAANSUhEUgAAACgAAAAoCAYAAACM/rhtAAAABHNCSVQICAgIfAhkiAAAAUZJREFU WIXtmOFthCAYQB+NA9wojmBH6QbtBD0n6Ao3QjeQERyhG5wb0B8nBjk4vYJAGl7yJYgEXkAUP6GU omRecgts0eiCEMK+1wIdcDrYYQIkMJqVy8oqpbCWuQUGQCWOYR577WUJtsA1g5yOq5b0CeaYOddM OgXbAuR0tNrL3MUd5dDpQmNUHrVbpXV9wtgMHhaX5lGrACTQcy8Ht9kZ9nZ0hOAFeIvVWewvyUhE OYgv2EfuL/oSfzvqOut6a4OsiCkoHXXvwFdIp0efZoJfXcUft6pgKH8V7AFhxauj3Xlnu+iCyaiC ofxbwU88R3WL88520QWTUQVDqYKhVMFQTMEpm8U9i4spKNN7eJG6YAqOlCEpMXKF9jP4Qd6lnmaH BVtw5HaglImETOQ89irT6vrt1JLPpoB/PINu4UwBa0TN8gfyC6iI5nSTHfgTAAAAAElFTkSuQmCC  "
       height="25.335409"
       width="25.335409"
       style="opacity:1" />
    <image
       y="377.20334"
       x="260.61685"
       id="image7267-4"
       xlink:href="data:image/png;base64,iVBORw0KGgoAAAANSUhEUgAAACgAAAAoCAYAAACM/rhtAAAABHNCSVQICAgIfAhkiAAAAUZJREFU WIXtmOFthCAYQB+NA9wojmBH6QbtBD0n6Ao3QjeQERyhG5wb0B8nBjk4vYJAGl7yJYgEXkAUP6GU omRecgts0eiCEMK+1wIdcDrYYQIkMJqVy8oqpbCWuQUGQCWOYR577WUJtsA1g5yOq5b0CeaYOddM OgXbAuR0tNrL3MUd5dDpQmNUHrVbpXV9wtgMHhaX5lGrACTQcy8Ht9kZ9nZ0hOAFeIvVWewvyUhE OYgv2EfuL/oSfzvqOut6a4OsiCkoHXXvwFdIp0efZoJfXcUft6pgKH8V7AFhxauj3Xlnu+iCyaiC ofxbwU88R3WL88520QWTUQVDqYKhVMFQTMEpm8U9i4spKNN7eJG6YAqOlCEpMXKF9jP4Qd6lnmaH BVtw5HaglImETOQ89irT6vrt1JLPpoB/PINu4UwBa0TN8gfyC6iI5nSTHfgTAAAAAElFTkSuQmCC  "
       height="25.335409"
       width="25.335409"
       style="opacity:1" />
    <image
       y="377.45987"
       x="420.71353"
       id="image7329-2"
       xlink:href="data:image/jpeg;base64,/9j/4AAQSkZJRgABAQAAAQABAAD/2wBDAAgGBgcGBQgHBwcJCQgKDBQNDAsLDBkSEw8UHRofHh0a HBwgJC4nICIsIxwcKDcpLDAxNDQ0Hyc5PTgyPC4zNDL/2wBDAQkJCQwLDBgNDRgyIRwhMjIyMjIy MjIyMjIyMjIyMjIyMjIyMjIyMjIyMjIyMjIyMjIyMjIyMjIyMjIyMjIyMjL/wAARCABAAEADASIA AhEBAxEB/8QAHwAAAQUBAQEBAQEAAAAAAAAAAAECAwQFBgcICQoL/8QAtRAAAgEDAwIEAwUFBAQA AAF9AQIDAAQRBRIhMUEGE1FhByJxFDKBkaEII0KxwRVS0fAkM2JyggkKFhcYGRolJicoKSo0NTY3 ODk6Q0RFRkdISUpTVFVWV1hZWmNkZWZnaGlqc3R1dnd4eXqDhIWGh4iJipKTlJWWl5iZmqKjpKWm p6ipqrKztLW2t7i5usLDxMXGx8jJytLT1NXW19jZ2uHi4+Tl5ufo6erx8vP09fb3+Pn6/8QAHwEA AwEBAQEBAQEBAQAAAAAAAAECAwQFBgcICQoL/8QAtREAAgECBAQDBAcFBAQAAQJ3AAECAxEEBSEx BhJBUQdhcRMiMoEIFEKRobHBCSMzUvAVYnLRChYkNOEl8RcYGRomJygpKjU2Nzg5OkNERUZHSElK U1RVVldYWVpjZGVmZ2hpanN0dXZ3eHl6goOEhYaHiImKkpOUlZaXmJmaoqOkpaanqKmqsrO0tba3 uLm6wsPExcbHyMnK0tPU1dbX2Nna4uPk5ebn6Onq8vP09fb3+Pn6/9oADAMBAAIRAxEAPwD3+s3W dZsNA0ubUdTuY7e2iUks7AZPoM9SewpdZ1S10TSbvU7xwsFtG0jEsBnA6DJAyeg96+OvG3jG98Ze Ibi+uJrk229vs0ErgiFCeAAAB0x7nuTQB6jf/tGT/wBpO+n6MgsUDbY52zJK3Ykg4QDrgBs46jOa 4u5+NPja51Ca6GprDvQxpFDGBHED3Cnqfds4zXnNOAJ4AJ78UAdaPiT4sEYj/t6+8vzvPYNOxLtx 1OckcD5eF9q9A0H4/wB/p2lRW2p2p1C5EuXupHwdhOT8oABPXA4AGOTXikkTxNiRGQ+jDFR0Afbv hLxfpvjLSBqOmicICFcSxFdrY5APRsexNdFXxx4I+I2ueEb+3jt7lpLAPlrR2IRs4z9CQAM4OOwr 630vUotUsIrqGWByyjf5Eu9UfHK546e4B9qAPmz48eIZtT8Zf2WM/ZbBQq/NINzYyxKnC5ySMjPA 69h5HXafFG/j1D4ja1KoGFuGjyChzt+X+H6dzn6dK4ugDtfhx4Fn8d+IxabmjsYAHu51Gdq9lHuc ED8T2r1fVvF3hjwmsmleAvCkOq3VmVjubmK3Lxx5bGGcAs5J464zjrjFY/wWSW68CeLrPTV3aq8Z EQyv8SYXqPXPXg/nXTfAuC0tfh1qM1zFHCouZFu5JAOdq9z6AH360AYnhv4saV45vYfD/jDQLGQ3 kmyKcf6sEnIBB5BzwCD3GccmvOvih4FPgXxKltFK0tldRedA5XbjnDL1PT+RFYloZNZ8eQtp6N5l 3qQaBWPI3SZGT+NevftGNBs0COS4LXqCTMWQQFwuW6dzj06UAeBV7t8B/GVvZTR+GDa3Dz3czOJj MzIoC5AVADjndk8D1NeE123wz8UX/hrxhbPZEuLpkglh2kiRCemArH3yBn8zQA/4o+H7/QfGl2NS khkmuz9pBjdmGGJ7sc9sc46cDFcNXu/7ROlam+p6fqRjDacsXliRU+42ckE5J9+gH1NeEUAb/hfx ZrHhHVBf6Rc+U54eNhlJB6MO/wDOvoTwoNL0L4NrN4puvssOutI88gyRmfOMDGF+XmvlyvZ/jX4r sp9M0PwtpRQW9rElxMqlTsbbhEO3gEAkke4oAteHPDvgXwP4oGqX/jC0vViRmt0jjBZcfx5BPI4A wMnJI6ZHnnxA8Wf8Jf4kmu4kMNjFmO1jyclM/fbJ+83BP4detcjRQAV1vw80mLWvGmn2suoxad+8 BjmdA2Xz8qgHgsTwM5+hrkq9v+Afg6K/1O48RXFxIkunuqwRQyqNxYHO8DnGOxxn8KAPcPFHhnT/ ABLpphvLGC6miRzbC5LbEkK4BIH+fSvkLxj4ak8KeIbnS5JUmMRAMkasELYBIGfTPqa+3a57xF4O 0PxZFHHrNilwIyCGDFXx127hg7c4OM9hQB8Q0V7/AOMvgA73P2jwvKvkt5jyQXBwVPUBSODnoBgY 7k9vPNU+EnjLSbdZbjR5pAYw7C3/AHpTJ2hTtzls44GeD1oA4Oiu8g+EPjWe4toP7FmjkuF3jzcK ka5xl26A/wCz9726Z9c8Ifs/6TppS68STjUrkc/ZosrAp9+7foPagDxTwL4JvvGuvQ2Vuksdpu/f 3fktJHEMZwSMcn6ivsLSdIsNF0+Ox060htraMcJEgUZ9fc+9T2lnbWFqltZ28VvBGMJHEgVVHsBV mgD/2Q== "
       height="26.421213"
       width="26.421213"
       style="opacity:1" />
    <path
       sodipodi:type="arc"
       style="fill:none;stroke:#000000;stroke-width:1.68182141999999990;stroke-miterlimit:4;stroke-opacity:1;stroke-dasharray:3.36364283999999980, 3.36364283999999980;stroke-dashoffset:0;opacity:1"
       id="path9744"
       sodipodi:cx="30.304577"
       sodipodi:cy="218.48125"
       sodipodi:rx="12.121831"
       sodipodi:ry="26.769043"
       d="m 42.426408,218.48125 a 12.121831,26.769043 0 1 1 -24.243662,0 12.121831,26.769043 0 1 1 24.243662,0 z"
       transform="matrix(0.55240839,0,0,1,111.17401,142.43151)" />
    <text
       xml:space="preserve"
       style="font-size:19.58235168px;font-style:italic;font-variant:normal;font-weight:normal;font-stretch:normal;text-align:start;line-height:100%;letter-spacing:0px;word-spacing:0px;writing-mode:lr-tb;text-anchor:start;fill:#000000;fill-opacity:1;stroke:none;font-family:Times New Roman;-inkscape-font-specification:'Times New Roman, Italic'"
       x="57.656796"
       y="277.51636"
       id="text9746"
       sodipodi:linespacing="100%"
       transform="scale(0.93735286,1.0668341)"><tspan
         sodipodi:role="line"
         x="57.656796"
         y="277.51636"
         style="font-size:19.58235168px;font-style:italic;font-variant:normal;font-weight:normal;font-stretch:normal;text-align:start;line-height:100%;writing-mode:lr-tb;text-anchor:start;font-family:Times New Roman;-inkscape-font-specification:'Times New Roman, Italic'"
         id="tspan9750">Temporal, referrence and logical constraints</tspan></text>
    <path
       style="fill:none;stroke:#8c8c8c;stroke-width:1.25;stroke-linecap:butt;stroke-linejoin:miter;stroke-opacity:1;opacity:1;stroke-miterlimit:4;stroke-dasharray:2.5,2.5;stroke-dashoffset:0"
       d="m 124.62119,304.47347 3.57143,30"
       id="path9785"
       inkscape:connector-curvature="0" />
    <text
       xml:space="preserve"
       style="font-size:19.58235168px;font-style:italic;font-variant:normal;font-weight:normal;font-stretch:normal;text-align:start;line-height:100%;letter-spacing:0px;word-spacing:0px;writing-mode:lr-tb;text-anchor:start;fill:#000000;fill-opacity:1;stroke:none;font-family:Times New Roman;-inkscape-font-specification:'Times New Roman, Italic'"
       x="561.24591"
       y="326.60236"
       id="text9787-8"
       sodipodi:linespacing="100%"><tspan
         sodipodi:role="line"
         id="tspan9789-6"
         x="561.24591"
         y="326.60236"
         style="font-size:19.58235168px;font-style:italic;font-variant:normal;font-weight:normal;font-stretch:normal;text-align:start;line-height:100%;writing-mode:lr-tb;text-anchor:start;font-family:Times New Roman;-inkscape-font-specification:'Times New Roman, Italic'">Activity</tspan></text>
    <path
       style="fill:none;stroke:#8c8c8c;stroke-width:1.25;stroke-linecap:butt;stroke-linejoin:miter;stroke-opacity:1;opacity:1;stroke-miterlimit:4;stroke-dasharray:2.5,2.5;stroke-dashoffset:0"
       d="M 573.4861,335.43442 540.71216,365.1779"
       id="path9812"
       inkscape:connector-curvature="0" />
    <text
       xml:space="preserve"
       style="font-size:19.58235168px;font-style:italic;font-variant:normal;font-weight:normal;font-stretch:normal;text-align:start;line-height:100%;letter-spacing:0px;word-spacing:0px;writing-mode:lr-tb;text-anchor:start;fill:#000000;fill-opacity:1;stroke:none;font-family:Times New Roman;-inkscape-font-specification:'Times New Roman, Italic'"
       x="463.60956"
       y="303.30627"
       id="text9787-8-8"
       sodipodi:linespacing="100%"><tspan
         sodipodi:role="line"
         id="tspan9789-6-8"
         x="463.60956"
         y="303.30627"
         style="font-size:19.58235168px;font-style:italic;font-variant:normal;font-weight:normal;font-stretch:normal;text-align:start;line-height:100%;writing-mode:lr-tb;text-anchor:start;font-family:Times New Roman;-inkscape-font-specification:'Times New Roman, Italic'">Entity</tspan></text>
    <path
       style="fill:none;stroke:#8c8c8c;stroke-width:1;stroke-linecap:butt;stroke-linejoin:miter;stroke-miterlimit:4;stroke-opacity:1;stroke-dasharray:2,2;stroke-dashoffset:0"
       d="m 480.23355,309.15788 -25.57084,43.40569"
       id="path9812-6"
       inkscape:connector-curvature="0" />
  </g>
</svg>
